%!PS-Adobe-3.0 EPSF-3.0
%%Creator: graphviz version 2.42.3 (20191010.1750)
%%Title: G
%%Pages: 1
%%BoundingBox: 36 36 773 681
%%EndComments
save
%%BeginProlog
/DotDict 200 dict def
DotDict begin

/setupLatin1 {
mark
/EncodingVector 256 array def
 EncodingVector 0

ISOLatin1Encoding 0 255 getinterval putinterval
EncodingVector 45 /hyphen put

% Set up ISO Latin 1 character encoding
/starnetISO {
        dup dup findfont dup length dict begin
        { 1 index /FID ne { def }{ pop pop } ifelse
        } forall
        /Encoding EncodingVector def
        currentdict end definefont
} def
/Times-Roman starnetISO def
/Times-Italic starnetISO def
/Times-Bold starnetISO def
/Times-BoldItalic starnetISO def
/Helvetica starnetISO def
/Helvetica-Oblique starnetISO def
/Helvetica-Bold starnetISO def
/Helvetica-BoldOblique starnetISO def
/Courier starnetISO def
/Courier-Oblique starnetISO def
/Courier-Bold starnetISO def
/Courier-BoldOblique starnetISO def
cleartomark
} bind def

%%BeginResource: procset graphviz 0 0
/coord-font-family /Times-Roman def
/default-font-family /Times-Roman def
/coordfont coord-font-family findfont 8 scalefont def

/InvScaleFactor 1.0 def
/set_scale {
       dup 1 exch div /InvScaleFactor exch def
       scale
} bind def

% styles
/solid { [] 0 setdash } bind def
/dashed { [9 InvScaleFactor mul dup ] 0 setdash } bind def
/dotted { [1 InvScaleFactor mul 6 InvScaleFactor mul] 0 setdash } bind def
/invis {/fill {newpath} def /stroke {newpath} def /show {pop newpath} def} bind def
/bold { 2 setlinewidth } bind def
/filled { } bind def
/unfilled { } bind def
/rounded { } bind def
/diagonals { } bind def
/tapered { } bind def

% hooks for setting color 
/nodecolor { sethsbcolor } bind def
/edgecolor { sethsbcolor } bind def
/graphcolor { sethsbcolor } bind def
/nopcolor {pop pop pop} bind def

/beginpage {	% i j npages
	/npages exch def
	/j exch def
	/i exch def
	/str 10 string def
	npages 1 gt {
		gsave
			coordfont setfont
			0 0 moveto
			(\() show i str cvs show (,) show j str cvs show (\)) show
		grestore
	} if
} bind def

/set_font {
	findfont exch
	scalefont setfont
} def

% draw text fitted to its expected width
/alignedtext {			% width text
	/text exch def
	/width exch def
	gsave
		width 0 gt {
			[] 0 setdash
			text stringwidth pop width exch sub text length div 0 text ashow
		} if
	grestore
} def

/boxprim {				% xcorner ycorner xsize ysize
		4 2 roll
		moveto
		2 copy
		exch 0 rlineto
		0 exch rlineto
		pop neg 0 rlineto
		closepath
} bind def

/ellipse_path {
	/ry exch def
	/rx exch def
	/y exch def
	/x exch def
	matrix currentmatrix
	newpath
	x y translate
	rx ry scale
	0 0 1 0 360 arc
	setmatrix
} bind def

/endpage { showpage } bind def
/showpage { } def

/layercolorseq
	[	% layer color sequence - darkest to lightest
		[0 0 0]
		[.2 .8 .8]
		[.4 .8 .8]
		[.6 .8 .8]
		[.8 .8 .8]
	]
def

/layerlen layercolorseq length def

/setlayer {/maxlayer exch def /curlayer exch def
	layercolorseq curlayer 1 sub layerlen mod get
	aload pop sethsbcolor
	/nodecolor {nopcolor} def
	/edgecolor {nopcolor} def
	/graphcolor {nopcolor} def
} bind def

/onlayer { curlayer ne {invis} if } def

/onlayers {
	/myupper exch def
	/mylower exch def
	curlayer mylower lt
	curlayer myupper gt
	or
	{invis} if
} def

/curlayer 0 def

%%EndResource
%%EndProlog
%%BeginSetup
14 default-font-family set_font
% /arrowlength 10 def
% /arrowwidth 5 def

% make sure pdfmark is harmless for PS-interpreters other than Distiller
/pdfmark where {pop} {userdict /pdfmark /cleartomark load put} ifelse
% make '<<' and '>>' safe on PS Level 1 devices
/languagelevel where {pop languagelevel}{1} ifelse
2 lt {
    userdict (<<) cvn ([) cvn load put
    userdict (>>) cvn ([) cvn load put
} if

%%EndSetup
setupLatin1
%%Page: 1 1
%%PageBoundingBox: 36 36 773 681
%%PageOrientation: Portrait
0 0 1 beginpage
gsave
36 36 737 645 boxprim clip newpath
1 1 set_scale 0 rotate 40 40 translate
% /nix/store/x60397za40lx0n88f51a2csfdq5xvb19-gcc-bootstrap-0.drv
gsave
0 0 1 nodecolor
newpath 579.0207 38 moveto
472.0207 38 lineto
472.0207 20 lineto
579.0207 20 lineto
closepath fill
1 setlinewidth
filled
0 0 0 nodecolor
newpath 579.0207 38 moveto
472.0207 38 lineto
472.0207 20 lineto
579.0207 20 lineto
closepath stroke
0 0 0 nodecolor
9 /Helvetica set_font
480.0207 26.8 moveto 91 (gcc-bootstrap-0.drv) alignedtext
grestore
% /nix/store/3iawic1z95112yfz5y9xdp66qbxxr8l1-tar
gsave
0 0 1 nodecolor
newpath 105.0207 618 moveto
76.0207 618 lineto
76.0207 600 lineto
105.0207 600 lineto
closepath fill
1 setlinewidth
filled
0 0 0 nodecolor
newpath 105.0207 618 moveto
76.0207 618 lineto
76.0207 600 lineto
105.0207 600 lineto
closepath stroke
0 0 0 nodecolor
9 /Helvetica set_font
84.0207 606.8 moveto 13 (tar) alignedtext
grestore
% /nix/store/3iawic1z95112yfz5y9xdp66qbxxr8l1-tar->/nix/store/x60397za40lx0n88f51a2csfdq5xvb19-gcc-bootstrap-0.drv
gsave
1 setlinewidth
0 0 0 edgecolor
newpath 75.9455 599.8748 moveto
56.7902 588.2899 23.8957 565.0576 9.5207 535 curveto
-7.9552 498.4585 4.5207 484.5054 4.5207 444 curveto
4.5207 444 4.5207 444 4.5207 193 curveto
4.5207 98.2275 322.4983 52.051 461.6257 36.3828 curveto
stroke
0 0 0 edgecolor
newpath 462.1732 39.8436 moveto
471.7269 35.2635 lineto
461.4022 32.8862 lineto
closepath fill
1 setlinewidth
solid
0 0 0 edgecolor
newpath 462.1732 39.8436 moveto
471.7269 35.2635 lineto
461.4022 32.8862 lineto
closepath stroke
grestore
% /nix/store/4sv9xhcjap6byca130fzpzzjalb7iixv-glibc-bootstrap-0.drv
gsave
0 0 1 nodecolor
newpath 251.5207 121 moveto
139.5207 121 lineto
139.5207 103 lineto
251.5207 103 lineto
closepath fill
1 setlinewidth
filled
0 0 0 nodecolor
newpath 251.5207 121 moveto
139.5207 121 lineto
139.5207 103 lineto
251.5207 103 lineto
closepath stroke
0 0 0 nodecolor
9 /Helvetica set_font
147.5207 109.8 moveto 96 (glibc-bootstrap-0.drv) alignedtext
grestore
% /nix/store/3iawic1z95112yfz5y9xdp66qbxxr8l1-tar->/nix/store/4sv9xhcjap6byca130fzpzzjalb7iixv-glibc-bootstrap-0.drv
gsave
1 setlinewidth
0.66667 1 1 edgecolor
newpath 77.0069 599.867 moveto
58.8821 588.1127 27.3774 564.5138 13.5207 535 curveto
-3.705 498.3102 7.5207 484.5323 7.5207 444 curveto
7.5207 444 7.5207 444 7.5207 276 curveto
7.5207 232.8248 12.2329 216.7226 41.5207 185 curveto
70.767 153.3225 116.7803 134.3528 150.9024 123.9027 curveto
stroke
0.66667 1 1 edgecolor
newpath 152.019 127.2228 moveto
160.632 121.0531 lineto
150.0514 120.505 lineto
closepath fill
1 setlinewidth
solid
0.66667 1 1 edgecolor
newpath 152.019 127.2228 moveto
160.632 121.0531 lineto
150.0514 120.505 lineto
closepath stroke
grestore
% /nix/store/r3dsy5j2c16sv26raala6kahff7w18hb-gcc-bootstrap-0-guile-builder
gsave
0 0 1 nodecolor
newpath 721.5207 452 moveto
573.5207 452 lineto
573.5207 434 lineto
721.5207 434 lineto
closepath fill
1 setlinewidth
filled
0 0 0 nodecolor
newpath 721.5207 452 moveto
573.5207 452 lineto
573.5207 434 lineto
721.5207 434 lineto
closepath stroke
0 0 0 nodecolor
9 /Helvetica set_font
581.5207 440.8 moveto 132 (gcc-bootstrap-0-guile-builder) alignedtext
grestore
% /nix/store/3iawic1z95112yfz5y9xdp66qbxxr8l1-tar->/nix/store/r3dsy5j2c16sv26raala6kahff7w18hb-gcc-bootstrap-0-guile-builder
gsave
1 setlinewidth
0.83137 1 1 edgecolor
newpath 105.102 608.3829 moveto
151.8398 608.867 300.1846 604.5515 391.5207 535 curveto
398.8017 529.4556 394.3821 522.7266 401.5207 517 curveto
447.6182 480.0203 511.9971 461.7636 563.3328 452.7556 curveto
stroke
0.83137 1 1 edgecolor
newpath 564.1285 456.1713 moveto
573.4168 451.0745 lineto
562.9774 449.2666 lineto
closepath fill
1 setlinewidth
solid
0.83137 1 1 edgecolor
newpath 564.1285 456.1713 moveto
573.4168 451.0745 lineto
562.9774 449.2666 lineto
closepath stroke
grestore
% /nix/store/8iivk9hpnps21yrbq3zzsxgzv9ixbhgh-glibc-bootstrap-0-guile-builder
gsave
0 0 1 nodecolor
newpath 167.0207 535 moveto
14.0207 535 lineto
14.0207 517 lineto
167.0207 517 lineto
closepath fill
1 setlinewidth
filled
0 0 0 nodecolor
newpath 167.0207 535 moveto
14.0207 535 lineto
14.0207 517 lineto
167.0207 517 lineto
closepath stroke
0 0 0 nodecolor
9 /Helvetica set_font
22.0207 523.8 moveto 137 (glibc-bootstrap-0-guile-builder) alignedtext
grestore
% /nix/store/3iawic1z95112yfz5y9xdp66qbxxr8l1-tar->/nix/store/8iivk9hpnps21yrbq3zzsxgzv9ixbhgh-glibc-bootstrap-0-guile-builder
gsave
1 setlinewidth
0.83137 1 1 edgecolor
newpath 90.5207 599.9373 moveto
90.5207 587.3224 90.5207 562.5904 90.5207 545.4455 curveto
stroke
0.83137 1 1 edgecolor
newpath 94.0208 545.0301 moveto
90.5207 535.0301 lineto
87.0208 545.0301 lineto
closepath fill
1 setlinewidth
solid
0.83137 1 1 edgecolor
newpath 94.0208 545.0301 moveto
90.5207 535.0301 lineto
87.0208 545.0301 lineto
closepath stroke
grestore
% /nix/store/bplka3yqdg8prqq3zdxza6wxlkjdhr2g-build-bootstrap-guile.sh
gsave
0 0 1 nodecolor
newpath 522.5207 535 moveto
398.5207 535 lineto
398.5207 517 lineto
522.5207 517 lineto
closepath fill
1 setlinewidth
filled
0 0 0 nodecolor
newpath 522.5207 535 moveto
398.5207 535 lineto
398.5207 517 lineto
522.5207 517 lineto
closepath stroke
0 0 0 nodecolor
9 /Helvetica set_font
406.5207 523.8 moveto 108 (build-bootstrap-guile.sh) alignedtext
grestore
% /nix/store/3iawic1z95112yfz5y9xdp66qbxxr8l1-tar->/nix/store/bplka3yqdg8prqq3zdxza6wxlkjdhr2g-build-bootstrap-guile.sh
gsave
1 setlinewidth
0 1 1 edgecolor
newpath 105.0251 604.8247 moveto
156.1884 593.6241 329.6771 555.6442 413.8929 537.2077 curveto
stroke
0 1 1 edgecolor
newpath 414.6862 540.617 moveto
423.7063 535.0594 lineto
413.1891 533.779 lineto
closepath fill
1 setlinewidth
solid
0 1 1 edgecolor
newpath 414.6862 540.617 moveto
423.7063 535.0594 lineto
413.1891 533.779 lineto
closepath stroke
grestore
% /nix/store/4sv9xhcjap6byca130fzpzzjalb7iixv-glibc-bootstrap-0.drv->/nix/store/x60397za40lx0n88f51a2csfdq5xvb19-gcc-bootstrap-0.drv
gsave
1 setlinewidth
0 1 1 edgecolor
newpath 228.3688 102.9373 moveto
288.5346 88.1693 416.3545 56.7953 483.0368 40.4279 curveto
stroke
0 1 1 edgecolor
newpath 483.9281 43.8131 moveto
492.8054 38.0301 lineto
482.2594 37.0149 lineto
closepath fill
1 setlinewidth
solid
0 1 1 edgecolor
newpath 483.9281 43.8131 moveto
492.8054 38.0301 lineto
482.2594 37.0149 lineto
closepath stroke
grestore
% /nix/store/8cc81w6m04csm52y247xj3gydrbz2niv-xz
gsave
0 0 1 nodecolor
newpath 584.5207 618 moveto
558.5207 618 lineto
558.5207 600 lineto
584.5207 600 lineto
closepath fill
1 setlinewidth
filled
0 0 0 nodecolor
newpath 584.5207 618 moveto
558.5207 618 lineto
558.5207 600 lineto
584.5207 600 lineto
closepath stroke
0 0 0 nodecolor
9 /Helvetica set_font
566.5207 606.8 moveto 10 (xz) alignedtext
grestore
% /nix/store/8cc81w6m04csm52y247xj3gydrbz2niv-xz->/nix/store/x60397za40lx0n88f51a2csfdq5xvb19-gcc-bootstrap-0.drv
gsave
1 setlinewidth
0.33333 1 1 edgecolor
newpath 584.7359 601.9864 moveto
622.2193 583.9237 726.5207 526.2707 726.5207 444 curveto
726.5207 444 726.5207 444 726.5207 193 curveto
726.5207 150.3959 722.753 133.9933 693.5207 103 curveto
662.2073 69.8002 613.2076 50.8825 576.1908 40.6674 curveto
stroke
0.33333 1 1 edgecolor
newpath 576.6539 37.1702 moveto
566.0926 38.0123 lineto
574.8739 43.9402 lineto
closepath fill
1 setlinewidth
solid
0.33333 1 1 edgecolor
newpath 576.6539 37.1702 moveto
566.0926 38.0123 lineto
574.8739 43.9402 lineto
closepath stroke
grestore
% /nix/store/8cc81w6m04csm52y247xj3gydrbz2niv-xz->/nix/store/4sv9xhcjap6byca130fzpzzjalb7iixv-glibc-bootstrap-0.drv
gsave
1 setlinewidth
0.83137 1 1 edgecolor
newpath 569.2513 599.6848 moveto
562.5606 573.3608 545.2686 490.2747 576.5207 434 curveto
601.8957 388.3079 640.5616 408.7295 674.5207 369 curveto
705.6831 332.5424 735.7848 309.9408 712.5207 268 curveto
678.7228 207.0688 644.4414 210.3026 579.5207 185 curveto
472.9202 143.4529 340.0864 125.3979 261.8689 117.9147 curveto
stroke
0.83137 1 1 edgecolor
newpath 261.9514 114.4074 moveto
251.6711 116.9695 lineto
261.3053 121.3776 lineto
closepath fill
1 setlinewidth
solid
0.83137 1 1 edgecolor
newpath 261.9514 114.4074 moveto
251.6711 116.9695 lineto
261.3053 121.3776 lineto
closepath stroke
grestore
% /nix/store/8cc81w6m04csm52y247xj3gydrbz2niv-xz->/nix/store/r3dsy5j2c16sv26raala6kahff7w18hb-gcc-bootstrap-0-guile-builder
gsave
1 setlinewidth
0.090196 0.38824 0.87059 edgecolor
newpath 583.7587 599.8256 moveto
600.4949 587.8552 629.8845 563.8208 642.5207 535 curveto
652.8288 511.4892 652.0792 481.2275 650.1477 462.2156 curveto
stroke
0.090196 0.38824 0.87059 edgecolor
newpath 653.6133 461.7209 moveto
648.9146 452.2249 lineto
646.666 462.5784 lineto
closepath fill
1 setlinewidth
solid
0.090196 0.38824 0.87059 edgecolor
newpath 653.6133 461.7209 moveto
648.9146 452.2249 lineto
646.666 462.5784 lineto
closepath stroke
grestore
% /nix/store/8cc81w6m04csm52y247xj3gydrbz2niv-xz->/nix/store/8iivk9hpnps21yrbq3zzsxgzv9ixbhgh-glibc-bootstrap-0-guile-builder
gsave
1 setlinewidth
0.090196 0.38824 0.87059 edgecolor
newpath 558.1886 605.1323 moveto
550.6657 603.5476 541.0842 601.5849 532.5207 600 curveto
397.8511 575.0764 239.3167 549.9007 153.4676 536.6123 curveto
stroke
0.090196 0.38824 0.87059 edgecolor
newpath 153.7822 533.1195 moveto
143.365 535.0516 lineto
152.7134 540.0374 lineto
closepath fill
1 setlinewidth
solid
0.090196 0.38824 0.87059 edgecolor
newpath 153.7822 533.1195 moveto
143.365 535.0516 lineto
152.7134 540.0374 lineto
closepath stroke
grestore
% /nix/store/8cc81w6m04csm52y247xj3gydrbz2niv-xz->/nix/store/bplka3yqdg8prqq3zdxza6wxlkjdhr2g-build-bootstrap-guile.sh
gsave
1 setlinewidth
0.66667 1 1 edgecolor
newpath 560.4718 599.9373 moveto
541.6056 586.17 502.9625 557.971 479.6401 540.952 curveto
stroke
0.66667 1 1 edgecolor
newpath 481.666 538.0976 moveto
471.5249 535.0301 lineto
477.5397 543.7521 lineto
closepath fill
1 setlinewidth
solid
0.66667 1 1 edgecolor
newpath 481.666 538.0976 moveto
471.5249 535.0301 lineto
477.5397 543.7521 lineto
closepath stroke
grestore
% /nix/store/96yx6013dhggr3mpg5ayxv8dm9mv2ghv-module-import.drv
gsave
0 0 1 nodecolor
newpath 114.0207 369 moveto
13.0207 369 lineto
13.0207 351 lineto
114.0207 351 lineto
closepath fill
1 setlinewidth
filled
0 0 0 nodecolor
newpath 114.0207 369 moveto
13.0207 369 lineto
13.0207 351 lineto
114.0207 351 lineto
closepath stroke
0 0 0 nodecolor
9 /Helvetica set_font
21.0207 357.8 moveto 85 (module-import.drv) alignedtext
grestore
% /nix/store/96yx6013dhggr3mpg5ayxv8dm9mv2ghv-module-import.drv->/nix/store/x60397za40lx0n88f51a2csfdq5xvb19-gcc-bootstrap-0.drv
gsave
1 setlinewidth
0.66667 1 1 edgecolor
newpath 63.1589 350.7894 moveto
62.0707 315.1193 62.795 172.2959 139.5207 103 curveto
186.0219 61.0018 364.6303 41.6847 461.746 34.1262 curveto
stroke
0.66667 1 1 edgecolor
newpath 462.0345 37.6144 moveto
471.7409 33.3674 lineto
461.5046 30.6345 lineto
closepath fill
1 setlinewidth
solid
0.66667 1 1 edgecolor
newpath 462.0345 37.6144 moveto
471.7409 33.3674 lineto
461.5046 30.6345 lineto
closepath stroke
grestore
% /nix/store/96yx6013dhggr3mpg5ayxv8dm9mv2ghv-module-import.drv->/nix/store/4sv9xhcjap6byca130fzpzzjalb7iixv-glibc-bootstrap-0.drv
gsave
1 setlinewidth
0 0 0 edgecolor
newpath 67.104 350.8599 moveto
74.2251 334.8136 90.827 298.0472 106.5207 268 curveto
133.2499 216.8242 168.1392 158.1598 185.2074 129.9258 curveto
stroke
0 0 0 edgecolor
newpath 188.264 131.6354 moveto
190.4588 121.2704 lineto
182.2793 128.0044 lineto
closepath fill
1 setlinewidth
solid
0 0 0 edgecolor
newpath 188.264 131.6354 moveto
190.4588 121.2704 lineto
182.2793 128.0044 lineto
closepath stroke
grestore
% /nix/store/y4n7rzysx6qz3p0n91dw9qz5w93l6iqv-module-import-compiled.drv
gsave
0 0 1 nodecolor
newpath 252.5207 286 moveto
106.5207 286 lineto
106.5207 268 lineto
252.5207 268 lineto
closepath fill
1 setlinewidth
filled
0 0 0 nodecolor
newpath 252.5207 286 moveto
106.5207 286 lineto
106.5207 268 lineto
252.5207 268 lineto
closepath stroke
0 0 0 nodecolor
9 /Helvetica set_font
114.5207 274.8 moveto 130 (module-import-compiled.drv) alignedtext
grestore
% /nix/store/96yx6013dhggr3mpg5ayxv8dm9mv2ghv-module-import.drv->/nix/store/y4n7rzysx6qz3p0n91dw9qz5w93l6iqv-module-import-compiled.drv
gsave
1 setlinewidth
0 0 0 edgecolor
newpath 75.0673 350.9373 moveto
94.7834 337.17 135.1672 308.971 159.5401 291.952 curveto
stroke
0 0 0 edgecolor
newpath 161.8256 294.6249 moveto
168.0208 286.0301 lineto
157.818 288.8856 lineto
closepath fill
1 setlinewidth
solid
0 0 0 edgecolor
newpath 161.8256 294.6249 moveto
168.0208 286.0301 lineto
157.818 288.8856 lineto
closepath stroke
grestore
% /nix/store/fl9cwcczfdv73vq5sr0c4rd5hqzrgvac-gcc-4.7.2.tar.xz.drv
gsave
0 0 1 nodecolor
newpath 578.5207 203 moveto
472.5207 203 lineto
472.5207 185 lineto
578.5207 185 lineto
closepath fill
1 setlinewidth
filled
0 0 0 nodecolor
newpath 578.5207 203 moveto
472.5207 203 lineto
472.5207 185 lineto
578.5207 185 lineto
closepath stroke
0 0 0 nodecolor
9 /Helvetica set_font
480.5207 191.8 moveto 90 (gcc-4.7.2.tar.xz.drv) alignedtext
grestore
% /nix/store/fl9cwcczfdv73vq5sr0c4rd5hqzrgvac-gcc-4.7.2.tar.xz.drv->/nix/store/x60397za40lx0n88f51a2csfdq5xvb19-gcc-bootstrap-0.drv
gsave
1 setlinewidth
0.83137 1 1 edgecolor
newpath 525.5207 184.6927 moveto
525.5207 159.5129 525.5207 83.6144 525.5207 48.3621 curveto
stroke
0.83137 1 1 edgecolor
newpath 529.0208 48.0971 moveto
525.5207 38.0971 lineto
522.0208 48.0972 lineto
closepath fill
1 setlinewidth
solid
0.83137 1 1 edgecolor
newpath 529.0208 48.0971 moveto
525.5207 38.0971 lineto
522.0208 48.0972 lineto
closepath stroke
grestore
% /nix/store/jaaqdl979wjirnbxz1jqsipg22nva5n4-bash
gsave
0 0 1 nodecolor
newpath 645.5207 535 moveto
607.5207 535 lineto
607.5207 517 lineto
645.5207 517 lineto
closepath fill
1 setlinewidth
filled
0 0 0 nodecolor
newpath 645.5207 535 moveto
607.5207 535 lineto
607.5207 517 lineto
645.5207 517 lineto
closepath stroke
0 0 0 nodecolor
9 /Helvetica set_font
615.5207 523.8 moveto 22 (bash) alignedtext
grestore
% /nix/store/jaaqdl979wjirnbxz1jqsipg22nva5n4-bash->/nix/store/x60397za40lx0n88f51a2csfdq5xvb19-gcc-bootstrap-0.drv
gsave
1 setlinewidth
0.090196 0.38824 0.87059 edgecolor
newpath 644.1506 516.8347 moveto
665.9953 505.6525 702.3113 483.3289 718.5207 452 curveto
737.1342 416.0246 723.5207 401.5054 723.5207 361 curveto
723.5207 361 723.5207 361 723.5207 193 curveto
723.5207 149.5807 715.7818 134.1368 685.5207 103 curveto
654.2418 70.816 606.1331 51.524 570.8333 40.9298 curveto
stroke
0.090196 0.38824 0.87059 edgecolor
newpath 571.3604 37.4397 moveto
560.7827 38.0427 lineto
569.4277 44.1676 lineto
closepath fill
1 setlinewidth
solid
0.090196 0.38824 0.87059 edgecolor
newpath 571.3604 37.4397 moveto
560.7827 38.0427 lineto
569.4277 44.1676 lineto
closepath stroke
grestore
% /nix/store/jaaqdl979wjirnbxz1jqsipg22nva5n4-bash->/nix/store/r3dsy5j2c16sv26raala6kahff7w18hb-gcc-bootstrap-0-guile-builder
gsave
1 setlinewidth
0 0 0 edgecolor
newpath 628.611 516.9373 moveto
631.913 504.2011 638.4172 479.1137 642.8662 461.953 curveto
stroke
0 0 0 edgecolor
newpath 646.3171 462.5885 moveto
645.4388 452.0301 lineto
639.5411 460.8317 lineto
closepath fill
1 setlinewidth
solid
0 0 0 edgecolor
newpath 646.3171 462.5885 moveto
645.4388 452.0301 lineto
639.5411 460.8317 lineto
closepath stroke
grestore
% /nix/store/x9x1a86flhx15cams7235rfy5gc5cww1-guile-bootstrap-2.0.drv
gsave
0 0 1 nodecolor
newpath 499.0207 452 moveto
378.0207 452 lineto
378.0207 434 lineto
499.0207 434 lineto
closepath fill
1 setlinewidth
filled
0 0 0 nodecolor
newpath 499.0207 452 moveto
378.0207 452 lineto
378.0207 434 lineto
499.0207 434 lineto
closepath stroke
0 0 0 nodecolor
9 /Helvetica set_font
386.0207 440.8 moveto 105 (guile-bootstrap-2.0.drv) alignedtext
grestore
% /nix/store/jaaqdl979wjirnbxz1jqsipg22nva5n4-bash->/nix/store/x9x1a86flhx15cams7235rfy5gc5cww1-guile-bootstrap-2.0.drv
gsave
1 setlinewidth
0 0 0 edgecolor
newpath 607.8072 516.9373 moveto
574.7275 502.6848 505.7493 472.9655 466.8261 456.1954 curveto
stroke
0 0 0 edgecolor
newpath 467.7273 452.7727 moveto
457.1585 452.0301 lineto
464.9574 459.2014 lineto
closepath fill
1 setlinewidth
solid
0 0 0 edgecolor
newpath 467.7273 452.7727 moveto
457.1585 452.0301 lineto
464.9574 459.2014 lineto
closepath stroke
grestore
% /nix/store/r3dsy5j2c16sv26raala6kahff7w18hb-gcc-bootstrap-0-guile-builder->/nix/store/x60397za40lx0n88f51a2csfdq5xvb19-gcc-bootstrap-0.drv
gsave
1 setlinewidth
0 0 0 edgecolor
newpath 658.9802 433.9024 moveto
674.9707 421.8507 703.3784 397.5266 715.5207 369 curveto
731.3845 331.7303 720.5207 318.5054 720.5207 278 curveto
720.5207 278 720.5207 278 720.5207 193 curveto
720.5207 148.4756 708.0734 134.4141 676.5207 103 curveto
645.4781 72.0938 598.7751 52.3025 565.5371 41.2356 curveto
stroke
0 0 0 edgecolor
newpath 566.2775 37.7976 moveto
555.6864 38.0785 lineto
564.141 44.4636 lineto
closepath fill
1 setlinewidth
solid
0 0 0 edgecolor
newpath 566.2775 37.7976 moveto
555.6864 38.0785 lineto
564.141 44.4636 lineto
closepath stroke
grestore
% /nix/store/x9x1a86flhx15cams7235rfy5gc5cww1-guile-bootstrap-2.0.drv->/nix/store/x60397za40lx0n88f51a2csfdq5xvb19-gcc-bootstrap-0.drv
gsave
1 setlinewidth
0 1 1 edgecolor
newpath 495.7081 433.9962 moveto
576.5502 419.0948 714.5207 378.885 714.5207 278 curveto
714.5207 278 714.5207 278 714.5207 193 curveto
714.5207 112.2339 614.321 62.6669 559.8362 41.6843 curveto
stroke
0 1 1 edgecolor
newpath 560.8217 38.3164 moveto
550.2292 38.098 lineto
558.3736 44.8743 lineto
closepath fill
1 setlinewidth
solid
0 1 1 edgecolor
newpath 560.8217 38.3164 moveto
550.2292 38.098 lineto
558.3736 44.8743 lineto
closepath stroke
grestore
% /nix/store/x9x1a86flhx15cams7235rfy5gc5cww1-guile-bootstrap-2.0.drv->/nix/store/4sv9xhcjap6byca130fzpzzjalb7iixv-glibc-bootstrap-0.drv
gsave
1 setlinewidth
0.33333 1 1 edgecolor
newpath 435.9142 433.9767 moveto
429.027 412.9437 410.467 357.3888 404.5207 351 curveto
357.2322 300.1927 310.1114 336.5243 262.5207 286 curveto
251.3202 274.1091 215.7956 172.4202 201.5329 130.7245 curveto
stroke
0.33333 1 1 edgecolor
newpath 204.7888 129.4278 moveto
198.2512 121.0906 lineto
198.1627 131.685 lineto
closepath fill
1 setlinewidth
solid
0.33333 1 1 edgecolor
newpath 204.7888 129.4278 moveto
198.2512 121.0906 lineto
198.1627 131.685 lineto
closepath stroke
grestore
% /nix/store/x9x1a86flhx15cams7235rfy5gc5cww1-guile-bootstrap-2.0.drv->/nix/store/96yx6013dhggr3mpg5ayxv8dm9mv2ghv-module-import.drv
gsave
1 setlinewidth
0.33333 1 1 edgecolor
newpath 401.1933 433.9373 moveto
332.5424 419.1087 186.3789 387.5374 110.8678 371.227 curveto
stroke
0.33333 1 1 edgecolor
newpath 111.2107 367.7204 moveto
100.6972 369.0301 lineto
109.7328 374.5626 lineto
closepath fill
1 setlinewidth
solid
0.33333 1 1 edgecolor
newpath 111.2107 367.7204 moveto
100.6972 369.0301 lineto
109.7328 374.5626 lineto
closepath stroke
grestore
% /nix/store/x9x1a86flhx15cams7235rfy5gc5cww1-guile-bootstrap-2.0.drv->/nix/store/fl9cwcczfdv73vq5sr0c4rd5hqzrgvac-gcc-4.7.2.tar.xz.drv
gsave
1 setlinewidth
0 1 1 edgecolor
newpath 489.786 433.9179 moveto
527.4952 424.9987 576.243 406.5687 600.5207 369 curveto
604.8628 362.2809 602.3826 358.7803 600.5207 351 curveto
592.9803 319.4909 581.645 315.1579 567.5207 286 curveto
555.1615 260.4859 541.5216 230.5878 533.2374 212.2209 curveto
stroke
0 1 1 edgecolor
newpath 536.4213 210.767 moveto
529.1284 203.0816 lineto
530.0369 213.6375 lineto
closepath fill
1 setlinewidth
solid
0 1 1 edgecolor
newpath 536.4213 210.767 moveto
529.1284 203.0816 lineto
530.0369 213.6375 lineto
closepath stroke
grestore
% /nix/store/x9x1a86flhx15cams7235rfy5gc5cww1-guile-bootstrap-2.0.drv->/nix/store/y4n7rzysx6qz3p0n91dw9qz5w93l6iqv-module-import-compiled.drv
gsave
1 setlinewidth
0 1 1 edgecolor
newpath 435.682 433.9366 moveto
428.1816 412.8038 407.9715 357.0234 401.5207 351 curveto
363.6028 315.5939 308.1782 297.345 262.1955 287.9471 curveto
stroke
0 1 1 edgecolor
newpath 262.7198 284.4836 moveto
252.2367 286.018 lineto
261.3886 291.3559 lineto
closepath fill
1 setlinewidth
solid
0 1 1 edgecolor
newpath 262.7198 284.4836 moveto
252.2367 286.018 lineto
261.3886 291.3559 lineto
closepath stroke
grestore
% /nix/store/wdwrkg02gn28bkpbxgdb2nv558v8s3ji-glibc-2.17.tar.xz.drv
gsave
0 0 1 nodecolor
newpath 387.5207 203 moveto
279.5207 203 lineto
279.5207 185 lineto
387.5207 185 lineto
closepath fill
1 setlinewidth
filled
0 0 0 nodecolor
newpath 387.5207 203 moveto
279.5207 203 lineto
279.5207 185 lineto
387.5207 185 lineto
closepath stroke
0 0 0 nodecolor
9 /Helvetica set_font
287.5207 191.8 moveto 92 (glibc-2.17.tar.xz.drv) alignedtext
grestore
% /nix/store/x9x1a86flhx15cams7235rfy5gc5cww1-guile-bootstrap-2.0.drv->/nix/store/wdwrkg02gn28bkpbxgdb2nv558v8s3ji-glibc-2.17.tar.xz.drv
gsave
1 setlinewidth
0.83137 1 1 edgecolor
newpath 435.5558 433.5801 moveto
430.939 420.117 422.0891 392.8312 417.5207 369 curveto
409.0283 324.6983 426.9561 308.7067 407.5207 268 curveto
395.7348 243.3149 371.9626 222.2693 354.5302 209.2075 curveto
stroke
0.83137 1 1 edgecolor
newpath 356.2491 206.1322 moveto
346.0891 203.1278 lineto
352.158 211.8123 lineto
closepath fill
1 setlinewidth
solid
0.83137 1 1 edgecolor
newpath 356.2491 206.1322 moveto
346.0891 203.1278 lineto
352.158 211.8123 lineto
closepath stroke
grestore
% /nix/store/kvk5wp8c9rzvvrmq5fv5r58l78q8i6ch-module-import.drv
gsave
0 0 1 nodecolor
newpath 404.0207 369 moveto
303.0207 369 lineto
303.0207 351 lineto
404.0207 351 lineto
closepath fill
1 setlinewidth
filled
0 0 0 nodecolor
newpath 404.0207 369 moveto
303.0207 369 lineto
303.0207 351 lineto
404.0207 351 lineto
closepath stroke
0 0 0 nodecolor
9 /Helvetica set_font
311.0207 357.8 moveto 85 (module-import.drv) alignedtext
grestore
% /nix/store/x9x1a86flhx15cams7235rfy5gc5cww1-guile-bootstrap-2.0.drv->/nix/store/kvk5wp8c9rzvvrmq5fv5r58l78q8i6ch-module-import.drv
gsave
1 setlinewidth
0.090196 0.38824 0.87059 edgecolor
newpath 430.0598 433.9373 moveto
415.9309 420.4733 387.3174 393.2063 369.3586 376.0926 curveto
stroke
0.090196 0.38824 0.87059 edgecolor
newpath 371.6013 373.395 moveto
361.9474 369.0301 lineto
366.7722 378.4626 lineto
closepath fill
1 setlinewidth
solid
0.090196 0.38824 0.87059 edgecolor
newpath 371.6013 373.395 moveto
361.9474 369.0301 lineto
366.7722 378.4626 lineto
closepath stroke
grestore
% /nix/store/pzv319p3q7raiad7nq7fcdw9rafzp14k-module-import-compiled.drv
gsave
0 0 1 nodecolor
newpath 560.5207 286 moveto
414.5207 286 lineto
414.5207 268 lineto
560.5207 268 lineto
closepath fill
1 setlinewidth
filled
0 0 0 nodecolor
newpath 560.5207 286 moveto
414.5207 286 lineto
414.5207 268 lineto
560.5207 268 lineto
closepath stroke
0 0 0 nodecolor
9 /Helvetica set_font
422.5207 274.8 moveto 130 (module-import-compiled.drv) alignedtext
grestore
% /nix/store/x9x1a86flhx15cams7235rfy5gc5cww1-guile-bootstrap-2.0.drv->/nix/store/pzv319p3q7raiad7nq7fcdw9rafzp14k-module-import-compiled.drv
gsave
1 setlinewidth
0.66667 1 1 edgecolor
newpath 487.7215 433.918 moveto
524.9017 424.9515 573.5006 406.4588 597.5207 369 curveto
620.448 333.2453 563.3868 304.5815 523.154 289.5373 curveto
stroke
0.66667 1 1 edgecolor
newpath 524.194 286.1919 moveto
513.5996 286.0975 lineto
521.8228 292.7781 lineto
closepath fill
1 setlinewidth
solid
0.66667 1 1 edgecolor
newpath 524.194 286.1919 moveto
513.5996 286.0975 lineto
521.8228 292.7781 lineto
closepath stroke
grestore
% /nix/store/y4n7rzysx6qz3p0n91dw9qz5w93l6iqv-module-import-compiled.drv->/nix/store/x60397za40lx0n88f51a2csfdq5xvb19-gcc-bootstrap-0.drv
gsave
1 setlinewidth
0.33333 1 1 edgecolor
newpath 187.3907 267.937 moveto
203.7376 251.3989 242.9022 212.8536 279.5207 185 curveto
356.8148 126.2067 456.8648 68.2432 501.8166 43.0659 curveto
stroke
0.33333 1 1 edgecolor
newpath 503.7588 45.9905 moveto
510.791 38.0659 lineto
500.3518 39.8755 lineto
closepath fill
1 setlinewidth
solid
0.33333 1 1 edgecolor
newpath 503.7588 45.9905 moveto
510.791 38.0659 lineto
500.3518 39.8755 lineto
closepath stroke
grestore
% /nix/store/y4n7rzysx6qz3p0n91dw9qz5w93l6iqv-module-import-compiled.drv->/nix/store/4sv9xhcjap6byca130fzpzzjalb7iixv-glibc-bootstrap-0.drv
gsave
1 setlinewidth
0.66667 1 1 edgecolor
newpath 180.3361 267.6927 moveto
182.8078 242.5129 190.2579 166.6144 193.7183 131.3621 curveto
stroke
0.66667 1 1 edgecolor
newpath 197.2322 131.3912 moveto
194.7259 121.0971 lineto
190.2657 130.7073 lineto
closepath fill
1 setlinewidth
solid
0.66667 1 1 edgecolor
newpath 197.2322 131.3912 moveto
194.7259 121.0971 lineto
190.2657 130.7073 lineto
closepath stroke
grestore
% /nix/store/8iivk9hpnps21yrbq3zzsxgzv9ixbhgh-glibc-bootstrap-0-guile-builder->/nix/store/4sv9xhcjap6byca130fzpzzjalb7iixv-glibc-bootstrap-0.drv
gsave
1 setlinewidth
0.090196 0.38824 0.87059 edgecolor
newpath 79.8155 516.9181 moveto
64.5125 504.7065 36.7721 479.9855 23.5207 452 curveto
6.0365 415.0753 10.5207 401.8551 10.5207 361 curveto
10.5207 361 10.5207 361 10.5207 276 curveto
10.5207 196.0082 109.0958 145.945 162.3346 124.7399 curveto
stroke
0.090196 0.38824 0.87059 edgecolor
newpath 163.6477 127.9848 moveto
171.7139 121.1156 lineto
161.1245 121.4554 lineto
closepath fill
1 setlinewidth
solid
0.090196 0.38824 0.87059 edgecolor
newpath 163.6477 127.9848 moveto
171.7139 121.1156 lineto
161.1245 121.4554 lineto
closepath stroke
grestore
% /nix/store/wdwrkg02gn28bkpbxgdb2nv558v8s3ji-glibc-2.17.tar.xz.drv->/nix/store/4sv9xhcjap6byca130fzpzzjalb7iixv-glibc-bootstrap-0.drv
gsave
1 setlinewidth
0 1 1 edgecolor
newpath 319.5291 184.8889 moveto
295.7656 171.113 247.3006 143.0173 218.499 126.3207 curveto
stroke
0 1 1 edgecolor
newpath 219.9561 123.1199 moveto
209.5494 121.1325 lineto
216.4454 129.1759 lineto
closepath fill
1 setlinewidth
solid
0 1 1 edgecolor
newpath 219.9561 123.1199 moveto
209.5494 121.1325 lineto
216.4454 129.1759 lineto
closepath stroke
grestore
% /nix/store/9zrdfvnrpljryr82an2n1mj6bh2przhn-module-import-guile-builder
gsave
0 0 1 nodecolor
newpath 167.0207 452 moveto
24.0207 452 lineto
24.0207 434 lineto
167.0207 434 lineto
closepath fill
1 setlinewidth
filled
0 0 0 nodecolor
newpath 167.0207 452 moveto
24.0207 452 lineto
24.0207 434 lineto
167.0207 434 lineto
closepath stroke
0 0 0 nodecolor
9 /Helvetica set_font
32.0207 440.8 moveto 127 (module-import-guile-builder) alignedtext
grestore
% /nix/store/9zrdfvnrpljryr82an2n1mj6bh2przhn-module-import-guile-builder->/nix/store/96yx6013dhggr3mpg5ayxv8dm9mv2ghv-module-import.drv
gsave
1 setlinewidth
0 0 0 edgecolor
newpath 92.3354 433.9373 moveto
87.2559 421.0798 77.2036 395.6347 70.4204 378.4649 curveto
stroke
0 0 0 edgecolor
newpath 73.6226 377.0446 moveto
66.6931 369.0301 lineto
67.1123 379.6167 lineto
closepath fill
1 setlinewidth
solid
0 0 0 edgecolor
newpath 73.6226 377.0446 moveto
66.6931 369.0301 lineto
67.1123 379.6167 lineto
closepath stroke
grestore
% /nix/store/mj7amprgvl2rgash1nr0v64apik8vc7f-utils.scm
gsave
0 0 1 nodecolor
newpath 230.0207 535 moveto
173.0207 535 lineto
173.0207 517 lineto
230.0207 517 lineto
closepath fill
1 setlinewidth
filled
0 0 0 nodecolor
newpath 230.0207 535 moveto
173.0207 535 lineto
173.0207 517 lineto
230.0207 517 lineto
closepath stroke
0 0 0 nodecolor
9 /Helvetica set_font
181.0207 523.8 moveto 41 (utils.scm) alignedtext
grestore
% /nix/store/mj7amprgvl2rgash1nr0v64apik8vc7f-utils.scm->/nix/store/96yx6013dhggr3mpg5ayxv8dm9mv2ghv-module-import.drv
gsave
1 setlinewidth
0 1 1 edgecolor
newpath 200.1737 516.9157 moveto
197.0222 500.0037 187.8433 460.2844 167.5207 434 curveto
146.767 407.158 113.4098 386.2187 90.0855 373.7787 curveto
stroke
0 1 1 edgecolor
newpath 91.5667 370.6045 moveto
81.0753 369.1276 lineto
88.3558 376.8247 lineto
closepath fill
1 setlinewidth
solid
0 1 1 edgecolor
newpath 91.5667 370.6045 moveto
81.0753 369.1276 lineto
88.3558 376.8247 lineto
closepath stroke
grestore
% /nix/store/mj7amprgvl2rgash1nr0v64apik8vc7f-utils.scm->/nix/store/9zrdfvnrpljryr82an2n1mj6bh2przhn-module-import-guile-builder
gsave
1 setlinewidth
0.66667 1 1 edgecolor
newpath 190.9695 516.9373 moveto
173.0325 503.2307 136.3754 475.2192 114.0741 458.1776 curveto
stroke
0.66667 1 1 edgecolor
newpath 116.1001 455.3209 moveto
106.0293 452.0301 lineto
111.8499 460.8829 lineto
closepath fill
1 setlinewidth
solid
0.66667 1 1 edgecolor
newpath 116.1001 455.3209 moveto
106.0293 452.0301 lineto
111.8499 460.8829 lineto
closepath stroke
grestore
% /nix/store/mj7amprgvl2rgash1nr0v64apik8vc7f-utils.scm->/nix/store/kvk5wp8c9rzvvrmq5fv5r58l78q8i6ch-module-import.drv
gsave
1 setlinewidth
0.83137 1 1 edgecolor
newpath 199.5792 516.8669 moveto
196.0108 499.8627 190.2583 459.9784 207.5207 434 curveto
229.5519 400.8449 271.3633 382.0959 304.6147 371.9258 curveto
stroke
0.83137 1 1 edgecolor
newpath 305.989 375.1722 moveto
314.6279 369.0386 lineto
304.0496 368.4462 lineto
closepath fill
1 setlinewidth
solid
0.83137 1 1 edgecolor
newpath 305.989 375.1722 moveto
314.6279 369.0386 lineto
304.0496 368.4462 lineto
closepath stroke
grestore
% /nix/store/yfixjx2gpvsi5dhkpdx5gj6gx0xdk1c8-module-import-guile-builder
gsave
0 0 1 nodecolor
newpath 348.0207 452 moveto
205.0207 452 lineto
205.0207 434 lineto
348.0207 434 lineto
closepath fill
1 setlinewidth
filled
0 0 0 nodecolor
newpath 348.0207 452 moveto
205.0207 452 lineto
205.0207 434 lineto
348.0207 434 lineto
closepath stroke
0 0 0 nodecolor
9 /Helvetica set_font
213.0207 440.8 moveto 127 (module-import-guile-builder) alignedtext
grestore
% /nix/store/mj7amprgvl2rgash1nr0v64apik8vc7f-utils.scm->/nix/store/yfixjx2gpvsi5dhkpdx5gj6gx0xdk1c8-module-import-guile-builder
gsave
1 setlinewidth
0.83137 1 1 edgecolor
newpath 208.9862 516.9373 moveto
221.3406 503.5946 246.2462 476.6964 262.1155 459.5576 curveto
stroke
0.83137 1 1 edgecolor
newpath 264.8595 461.7457 moveto
269.0854 452.0301 lineto
259.7231 456.9898 lineto
closepath fill
1 setlinewidth
solid
0.83137 1 1 edgecolor
newpath 264.8595 461.7457 moveto
269.0854 452.0301 lineto
259.7231 456.9898 lineto
closepath stroke
grestore
% /nix/store/6kslnirvm26fij7wpjqbw617ri4gf5x5-gcc-4.7.2.tar.xz-guile-builder
gsave
0 0 1 nodecolor
newpath 712.0207 286 moveto
565.0207 286 lineto
565.0207 268 lineto
712.0207 268 lineto
closepath fill
1 setlinewidth
filled
0 0 0 nodecolor
newpath 712.0207 286 moveto
565.0207 286 lineto
565.0207 268 lineto
712.0207 268 lineto
closepath stroke
0 0 0 nodecolor
9 /Helvetica set_font
573.0207 274.8 moveto 131 (gcc-4.7.2.tar.xz-guile-builder) alignedtext
grestore
% /nix/store/6kslnirvm26fij7wpjqbw617ri4gf5x5-gcc-4.7.2.tar.xz-guile-builder->/nix/store/fl9cwcczfdv73vq5sr0c4rd5hqzrgvac-gcc-4.7.2.tar.xz.drv
gsave
1 setlinewidth
0.83137 1 1 edgecolor
newpath 627.2727 267.9373 moveto
608.0666 254.17 568.7272 225.971 544.9846 208.952 curveto
stroke
0.83137 1 1 edgecolor
newpath 546.8899 206.0115 moveto
536.7232 203.0301 lineto
542.8117 211.7008 lineto
closepath fill
1 setlinewidth
solid
0.83137 1 1 edgecolor
newpath 546.8899 206.0115 moveto
536.7232 203.0301 lineto
542.8117 211.7008 lineto
closepath stroke
grestore
% /nix/store/kvk5wp8c9rzvvrmq5fv5r58l78q8i6ch-module-import.drv->/nix/store/fl9cwcczfdv73vq5sr0c4rd5hqzrgvac-gcc-4.7.2.tar.xz.drv
gsave
1 setlinewidth
0.090196 0.38824 0.87059 edgecolor
newpath 359.7771 350.6498 moveto
369.6954 337.2822 389.4475 310.125 404.5207 286 curveto
409.3699 278.2387 408.2955 274.7082 414.5207 268 curveto
439.0366 241.5823 474.9792 220.2171 499.2655 207.5787 curveto
stroke
0.090196 0.38824 0.87059 edgecolor
newpath 500.9299 210.6591 moveto
508.2668 203.0157 lineto
497.7648 204.4155 lineto
closepath fill
1 setlinewidth
solid
0.090196 0.38824 0.87059 edgecolor
newpath 500.9299 210.6591 moveto
508.2668 203.0157 lineto
497.7648 204.4155 lineto
closepath stroke
grestore
% /nix/store/kvk5wp8c9rzvvrmq5fv5r58l78q8i6ch-module-import.drv->/nix/store/wdwrkg02gn28bkpbxgdb2nv558v8s3ji-glibc-2.17.tar.xz.drv
gsave
1 setlinewidth
0 1 1 edgecolor
newpath 334.8478 350.8892 moveto
312.2085 339.901 275.1469 317.9201 259.5207 286 curveto
244.2373 254.7801 282.2391 224.7339 309.2595 208.1776 curveto
stroke
0 1 1 edgecolor
newpath 311.0586 211.18 moveto
317.9091 203.0978 lineto
307.5137 205.1439 lineto
closepath fill
1 setlinewidth
solid
0 1 1 edgecolor
newpath 311.0586 211.18 moveto
317.9091 203.0978 lineto
307.5137 205.1439 lineto
closepath stroke
grestore
% /nix/store/kvk5wp8c9rzvvrmq5fv5r58l78q8i6ch-module-import.drv->/nix/store/pzv319p3q7raiad7nq7fcdw9rafzp14k-module-import-compiled.drv
gsave
1 setlinewidth
0.33333 1 1 edgecolor
newpath 366.859 350.9373 moveto
389.9355 336.9881 437.5219 308.2231 465.5461 291.2832 curveto
stroke
0.33333 1 1 edgecolor
newpath 467.4889 294.1986 moveto
474.2363 286.0301 lineto
463.8677 288.208 lineto
closepath fill
1 setlinewidth
solid
0.33333 1 1 edgecolor
newpath 467.4889 294.1986 moveto
474.2363 286.0301 lineto
463.8677 288.208 lineto
closepath stroke
grestore
% /nix/store/pzv319p3q7raiad7nq7fcdw9rafzp14k-module-import-compiled.drv->/nix/store/fl9cwcczfdv73vq5sr0c4rd5hqzrgvac-gcc-4.7.2.tar.xz.drv
gsave
1 setlinewidth
0 0 0 edgecolor
newpath 491.3032 267.9373 moveto
497.3351 255.0798 509.2723 229.6347 517.3273 212.4649 curveto
stroke
0 0 0 edgecolor
newpath 520.6749 213.5699 moveto
521.7535 203.0301 lineto
514.3376 210.5968 lineto
closepath fill
1 setlinewidth
solid
0 0 0 edgecolor
newpath 520.6749 213.5699 moveto
521.7535 203.0301 lineto
514.3376 210.5968 lineto
closepath stroke
grestore
% /nix/store/pzv319p3q7raiad7nq7fcdw9rafzp14k-module-import-compiled.drv->/nix/store/wdwrkg02gn28bkpbxgdb2nv558v8s3ji-glibc-2.17.tar.xz.drv
gsave
1 setlinewidth
0.33333 1 1 edgecolor
newpath 472.1916 267.9373 moveto
445.4403 253.8668 390.0288 224.7218 357.9401 207.844 curveto
stroke
0.33333 1 1 edgecolor
newpath 359.2676 204.5876 moveto
348.7878 203.0301 lineto
356.009 210.7829 lineto
closepath fill
1 setlinewidth
solid
0.33333 1 1 edgecolor
newpath 359.2676 204.5876 moveto
348.7878 203.0301 lineto
356.009 210.7829 lineto
closepath stroke
grestore
% /nix/store/abagrdbdndkd0y2dwk0nw1gw0g0rhl2z-ftp-client.scm
gsave
0 0 1 nodecolor
newpath 311.0207 535 moveto
232.0207 535 lineto
232.0207 517 lineto
311.0207 517 lineto
closepath fill
1 setlinewidth
filled
0 0 0 nodecolor
newpath 311.0207 535 moveto
232.0207 535 lineto
232.0207 517 lineto
311.0207 517 lineto
closepath stroke
0 0 0 nodecolor
9 /Helvetica set_font
240.0207 523.8 moveto 63 (ftp-client.scm) alignedtext
grestore
% /nix/store/abagrdbdndkd0y2dwk0nw1gw0g0rhl2z-ftp-client.scm->/nix/store/kvk5wp8c9rzvvrmq5fv5r58l78q8i6ch-module-import.drv
gsave
1 setlinewidth
0.33333 1 1 edgecolor
newpath 284.1336 516.8933 moveto
301.4081 505.0032 331.8401 481.0637 345.5207 452 curveto
356.5357 428.5994 356.7634 398.0845 355.4775 379.0153 curveto
stroke
0.33333 1 1 edgecolor
newpath 358.9607 378.6696 moveto
354.59 369.0184 lineto
351.9881 379.2887 lineto
closepath fill
1 setlinewidth
solid
0.33333 1 1 edgecolor
newpath 358.9607 378.6696 moveto
354.59 369.0184 lineto
351.9881 379.2887 lineto
closepath stroke
grestore
% /nix/store/abagrdbdndkd0y2dwk0nw1gw0g0rhl2z-ftp-client.scm->/nix/store/yfixjx2gpvsi5dhkpdx5gj6gx0xdk1c8-module-import-guile-builder
gsave
1 setlinewidth
0.33333 1 1 edgecolor
newpath 272.0184 516.9373 moveto
272.7971 504.3224 274.3238 479.5904 275.3821 462.4455 curveto
stroke
0.33333 1 1 edgecolor
newpath 278.9022 462.2268 moveto
276.025 452.0301 lineto
271.9155 461.7954 lineto
closepath fill
1 setlinewidth
solid
0.33333 1 1 edgecolor
newpath 278.9022 462.2268 moveto
276.025 452.0301 lineto
271.9155 461.7954 lineto
closepath stroke
grestore
% /nix/store/dwd2iwd1ban8a8rmx568dpgrbkkidfhw-download.scm
gsave
0 0 1 nodecolor
newpath 394.5207 535 moveto
312.5207 535 lineto
312.5207 517 lineto
394.5207 517 lineto
closepath fill
1 setlinewidth
filled
0 0 0 nodecolor
newpath 394.5207 535 moveto
312.5207 535 lineto
312.5207 517 lineto
394.5207 517 lineto
closepath stroke
0 0 0 nodecolor
9 /Helvetica set_font
320.5207 523.8 moveto 66 (download.scm) alignedtext
grestore
% /nix/store/dwd2iwd1ban8a8rmx568dpgrbkkidfhw-download.scm->/nix/store/kvk5wp8c9rzvvrmq5fv5r58l78q8i6ch-module-import.drv
gsave
1 setlinewidth
0.66667 1 1 edgecolor
newpath 353.5207 516.6417 moveto
353.5207 491.3075 353.5207 414.9433 353.5207 379.4747 curveto
stroke
0.66667 1 1 edgecolor
newpath 357.0208 379.1468 moveto
353.5207 369.1468 lineto
350.0208 379.1468 lineto
closepath fill
1 setlinewidth
solid
0.66667 1 1 edgecolor
newpath 357.0208 379.1468 moveto
353.5207 369.1468 lineto
350.0208 379.1468 lineto
closepath stroke
grestore
% /nix/store/dwd2iwd1ban8a8rmx568dpgrbkkidfhw-download.scm->/nix/store/yfixjx2gpvsi5dhkpdx5gj6gx0xdk1c8-module-import-guile-builder
gsave
1 setlinewidth
0.66667 1 1 edgecolor
newpath 345.8561 516.9373 moveto
333.1723 503.5946 307.6025 476.6964 291.31 459.5576 curveto
stroke
0.66667 1 1 edgecolor
newpath 293.5809 456.8664 moveto
284.1543 452.0301 lineto
288.5074 461.6894 lineto
closepath fill
1 setlinewidth
solid
0.66667 1 1 edgecolor
newpath 293.5809 456.8664 moveto
284.1543 452.0301 lineto
288.5074 461.6894 lineto
closepath stroke
grestore
% /nix/store/yfixjx2gpvsi5dhkpdx5gj6gx0xdk1c8-module-import-guile-builder->/nix/store/kvk5wp8c9rzvvrmq5fv5r58l78q8i6ch-module-import.drv
gsave
1 setlinewidth
0 0 0 edgecolor
newpath 284.1853 433.9373 moveto
296.8691 420.5946 322.4389 393.6964 338.7314 376.5576 curveto
stroke
0 0 0 edgecolor
newpath 341.534 378.6894 moveto
345.8871 369.0301 lineto
336.4605 373.8664 lineto
closepath fill
1 setlinewidth
solid
0 0 0 edgecolor
newpath 341.534 378.6894 moveto
345.8871 369.0301 lineto
336.4605 373.8664 lineto
closepath stroke
grestore
% /nix/store/98gzqlgpm4gxrpl5bzykpqbwrx8ckx8l-module-import-compiled-guile-builder
gsave
0 0 1 nodecolor
newpath 601.0207 369 moveto
414.0207 369 lineto
414.0207 351 lineto
601.0207 351 lineto
closepath fill
1 setlinewidth
filled
0 0 0 nodecolor
newpath 601.0207 369 moveto
414.0207 369 lineto
414.0207 351 lineto
601.0207 351 lineto
closepath stroke
0 0 0 nodecolor
9 /Helvetica set_font
422.0207 357.8 moveto 171 (module-import-compiled-guile-builder) alignedtext
grestore
% /nix/store/98gzqlgpm4gxrpl5bzykpqbwrx8ckx8l-module-import-compiled-guile-builder->/nix/store/pzv319p3q7raiad7nq7fcdw9rafzp14k-module-import-compiled.drv
gsave
1 setlinewidth
0 1 1 edgecolor
newpath 505.5299 350.9373 moveto
502.3852 338.2011 496.1908 313.1137 491.9536 295.953 curveto
stroke
0 1 1 edgecolor
newpath 495.2986 294.8995 moveto
489.5035 286.0301 lineto
488.5027 296.5776 lineto
closepath fill
1 setlinewidth
solid
0 1 1 edgecolor
newpath 495.2986 294.8995 moveto
489.5035 286.0301 lineto
488.5027 296.5776 lineto
closepath stroke
grestore
% /nix/store/q7as3jddipj4g6si8lawrdbkjg0zcjvg-glibc-2.17.tar.xz-guile-builder
gsave
0 0 1 nodecolor
newpath 408.0207 286 moveto
259.0207 286 lineto
259.0207 268 lineto
408.0207 268 lineto
closepath fill
1 setlinewidth
filled
0 0 0 nodecolor
newpath 408.0207 286 moveto
259.0207 286 lineto
259.0207 268 lineto
408.0207 268 lineto
closepath stroke
0 0 0 nodecolor
9 /Helvetica set_font
267.0207 274.8 moveto 133 (glibc-2.17.tar.xz-guile-builder) alignedtext
grestore
% /nix/store/q7as3jddipj4g6si8lawrdbkjg0zcjvg-glibc-2.17.tar.xz-guile-builder->/nix/store/wdwrkg02gn28bkpbxgdb2nv558v8s3ji-glibc-2.17.tar.xz.drv
gsave
1 setlinewidth
0.66667 1 1 edgecolor
newpath 333.5207 267.9373 moveto
333.5207 255.3224 333.5207 230.5904 333.5207 213.4455 curveto
stroke
0.66667 1 1 edgecolor
newpath 337.0208 213.0301 moveto
333.5207 203.0301 lineto
330.0208 213.0301 lineto
closepath fill
1 setlinewidth
solid
0.66667 1 1 edgecolor
newpath 337.0208 213.0301 moveto
333.5207 203.0301 lineto
330.0208 213.0301 lineto
closepath stroke
grestore
% /nix/store/bplka3yqdg8prqq3zdxza6wxlkjdhr2g-build-bootstrap-guile.sh->/nix/store/x9x1a86flhx15cams7235rfy5gc5cww1-guile-bootstrap-2.0.drv
gsave
1 setlinewidth
0.090196 0.38824 0.87059 edgecolor
newpath 458.3308 516.9373 moveto
454.8716 504.2011 448.0578 479.1137 443.3968 461.953 curveto
stroke
0.090196 0.38824 0.87059 edgecolor
newpath 446.7005 460.7631 moveto
440.7017 452.0301 lineto
439.9453 462.5979 lineto
closepath fill
1 setlinewidth
solid
0.090196 0.38824 0.87059 edgecolor
newpath 446.7005 460.7631 moveto
440.7017 452.0301 lineto
439.9453 462.5979 lineto
closepath stroke
grestore
% /nix/store/4xv2y0m6zr2lgi8x8pcb3zxjqxsz69kj-mkdir
gsave
0 0 1 nodecolor
newpath 438.0207 618 moveto
395.0207 618 lineto
395.0207 600 lineto
438.0207 600 lineto
closepath fill
1 setlinewidth
filled
0 0 0 nodecolor
newpath 438.0207 618 moveto
395.0207 618 lineto
395.0207 600 lineto
438.0207 600 lineto
closepath stroke
0 0 0 nodecolor
9 /Helvetica set_font
403.0207 606.8 moveto 27 (mkdir) alignedtext
grestore
% /nix/store/4xv2y0m6zr2lgi8x8pcb3zxjqxsz69kj-mkdir->/nix/store/bplka3yqdg8prqq3zdxza6wxlkjdhr2g-build-bootstrap-guile.sh
gsave
1 setlinewidth
0.33333 1 1 edgecolor
newpath 420.9005 599.9373 moveto
427.9507 586.9585 441.9682 561.1535 451.2964 543.9812 curveto
stroke
0.33333 1 1 edgecolor
newpath 454.4608 545.488 moveto
456.1587 535.0301 lineto
448.3098 542.1467 lineto
closepath fill
1 setlinewidth
solid
0.33333 1 1 edgecolor
newpath 454.4608 545.488 moveto
456.1587 535.0301 lineto
448.3098 542.1467 lineto
closepath stroke
grestore
% /nix/store/c450lqvaaz3ngx9pfiiiw55rqq6ssfda-guile-2.0.7.tar.xz
gsave
0 0 1 nodecolor
newpath 532.0207 618 moveto
439.0207 618 lineto
439.0207 600 lineto
532.0207 600 lineto
closepath fill
1 setlinewidth
filled
0 0 0 nodecolor
newpath 532.0207 618 moveto
439.0207 618 lineto
439.0207 600 lineto
532.0207 600 lineto
closepath stroke
0 0 0 nodecolor
9 /Helvetica set_font
447.0207 606.8 moveto 77 (guile-2.0.7.tar.xz) alignedtext
grestore
% /nix/store/c450lqvaaz3ngx9pfiiiw55rqq6ssfda-guile-2.0.7.tar.xz->/nix/store/bplka3yqdg8prqq3zdxza6wxlkjdhr2g-build-bootstrap-guile.sh
gsave
1 setlinewidth
0.83137 1 1 edgecolor
newpath 483.0322 599.9373 moveto
479.1013 587.2011 471.3583 562.1137 466.0618 544.953 curveto
stroke
0.83137 1 1 edgecolor
newpath 469.2927 543.5531 moveto
462.9991 535.0301 lineto
462.604 545.6176 lineto
closepath fill
1 setlinewidth
solid
0.83137 1 1 edgecolor
newpath 469.2927 543.5531 moveto
462.9991 535.0301 lineto
462.604 545.6176 lineto
closepath stroke
grestore
% /nix/store/8jiqjlb6zxjys16ca7s6jvxcc620c71k-module-import-compiled-guile-builder
gsave
0 0 1 nodecolor
newpath 302.0207 369 moveto
115.0207 369 lineto
115.0207 351 lineto
302.0207 351 lineto
closepath fill
1 setlinewidth
filled
0 0 0 nodecolor
newpath 302.0207 369 moveto
115.0207 369 lineto
115.0207 351 lineto
302.0207 351 lineto
closepath stroke
0 0 0 nodecolor
9 /Helvetica set_font
123.0207 357.8 moveto 171 (module-import-compiled-guile-builder) alignedtext
grestore
% /nix/store/8jiqjlb6zxjys16ca7s6jvxcc620c71k-module-import-compiled-guile-builder->/nix/store/y4n7rzysx6qz3p0n91dw9qz5w93l6iqv-module-import-compiled.drv
gsave
1 setlinewidth
0.090196 0.38824 0.87059 edgecolor
newpath 205.6341 350.9373 moveto
201.0307 338.0798 191.9208 312.6347 185.7736 295.4649 curveto
stroke
0.090196 0.38824 0.87059 edgecolor
newpath 189.0617 294.2651 moveto
182.3957 286.0301 lineto
182.4713 296.6247 lineto
closepath fill
1 setlinewidth
solid
0.090196 0.38824 0.87059 edgecolor
newpath 189.0617 294.2651 moveto
182.3957 286.0301 lineto
182.4713 296.6247 lineto
closepath stroke
grestore
endpage
showpage
grestore
%%PageTrailer
%%EndPage: 1
%%Trailer
end
restore
%%EOF
