%!PS-Adobe-3.0 EPSF-3.0
%%Creator: graphviz version 2.42.3 (20191010.1750)
%%Title: Guix package
%%Pages: 1
%%BoundingBox: 36 36 704 595
%%EndComments
save
%%BeginProlog
/DotDict 200 dict def
DotDict begin

/setupLatin1 {
mark
/EncodingVector 256 array def
 EncodingVector 0

ISOLatin1Encoding 0 255 getinterval putinterval
EncodingVector 45 /hyphen put

% Set up ISO Latin 1 character encoding
/starnetISO {
        dup dup findfont dup length dict begin
        { 1 index /FID ne { def }{ pop pop } ifelse
        } forall
        /Encoding EncodingVector def
        currentdict end definefont
} def
/Times-Roman starnetISO def
/Times-Italic starnetISO def
/Times-Bold starnetISO def
/Times-BoldItalic starnetISO def
/Helvetica starnetISO def
/Helvetica-Oblique starnetISO def
/Helvetica-Bold starnetISO def
/Helvetica-BoldOblique starnetISO def
/Courier starnetISO def
/Courier-Oblique starnetISO def
/Courier-Bold starnetISO def
/Courier-BoldOblique starnetISO def
cleartomark
} bind def

%%BeginResource: procset graphviz 0 0
/coord-font-family /Times-Roman def
/default-font-family /Times-Roman def
/coordfont coord-font-family findfont 8 scalefont def

/InvScaleFactor 1.0 def
/set_scale {
       dup 1 exch div /InvScaleFactor exch def
       scale
} bind def

% styles
/solid { [] 0 setdash } bind def
/dashed { [9 InvScaleFactor mul dup ] 0 setdash } bind def
/dotted { [1 InvScaleFactor mul 6 InvScaleFactor mul] 0 setdash } bind def
/invis {/fill {newpath} def /stroke {newpath} def /show {pop newpath} def} bind def
/bold { 2 setlinewidth } bind def
/filled { } bind def
/unfilled { } bind def
/rounded { } bind def
/diagonals { } bind def
/tapered { } bind def

% hooks for setting color 
/nodecolor { sethsbcolor } bind def
/edgecolor { sethsbcolor } bind def
/graphcolor { sethsbcolor } bind def
/nopcolor {pop pop pop} bind def

/beginpage {	% i j npages
	/npages exch def
	/j exch def
	/i exch def
	/str 10 string def
	npages 1 gt {
		gsave
			coordfont setfont
			0 0 moveto
			(\() show i str cvs show (,) show j str cvs show (\)) show
		grestore
	} if
} bind def

/set_font {
	findfont exch
	scalefont setfont
} def

% draw text fitted to its expected width
/alignedtext {			% width text
	/text exch def
	/width exch def
	gsave
		width 0 gt {
			[] 0 setdash
			text stringwidth pop width exch sub text length div 0 text ashow
		} if
	grestore
} def

/boxprim {				% xcorner ycorner xsize ysize
		4 2 roll
		moveto
		2 copy
		exch 0 rlineto
		0 exch rlineto
		pop neg 0 rlineto
		closepath
} bind def

/ellipse_path {
	/ry exch def
	/rx exch def
	/y exch def
	/x exch def
	matrix currentmatrix
	newpath
	x y translate
	rx ry scale
	0 0 1 0 360 arc
	setmatrix
} bind def

/endpage { showpage } bind def
/showpage { } def

/layercolorseq
	[	% layer color sequence - darkest to lightest
		[0 0 0]
		[.2 .8 .8]
		[.4 .8 .8]
		[.6 .8 .8]
		[.8 .8 .8]
	]
def

/layerlen layercolorseq length def

/setlayer {/maxlayer exch def /curlayer exch def
	layercolorseq curlayer 1 sub layerlen mod get
	aload pop sethsbcolor
	/nodecolor {nopcolor} def
	/edgecolor {nopcolor} def
	/graphcolor {nopcolor} def
} bind def

/onlayer { curlayer ne {invis} if } def

/onlayers {
	/myupper exch def
	/mylower exch def
	curlayer mylower lt
	curlayer myupper gt
	or
	{invis} if
} def

/curlayer 0 def

%%EndResource
%%EndProlog
%%BeginSetup
14 default-font-family set_font
% /arrowlength 10 def
% /arrowwidth 5 def

% make sure pdfmark is harmless for PS-interpreters other than Distiller
/pdfmark where {pop} {userdict /pdfmark /cleartomark load put} ifelse
% make '<<' and '>>' safe on PS Level 1 devices
/languagelevel where {pop languagelevel}{1} ifelse
2 lt {
    userdict (<<) cvn ([) cvn load put
    userdict (>>) cvn ([) cvn load put
} if

%%EndSetup
setupLatin1
%%Page: 1 1
%%PageBoundingBox: 36 36 704 595
%%PageOrientation: Portrait
0 0 1 beginpage
gsave
36 36 668 559 boxprim clip newpath
1 1 set_scale 0 rotate 40 40 translate
% 139781154519456
gsave
1 setlinewidth
0 0 0 nodecolor
newpath 410.6458 544 moveto
267.6458 544 lineto
267.6458 526 lineto
410.6458 526 lineto
closepath stroke
0 0 0 nodecolor
9 /Helvetica set_font
275.6458 532.8 moveto 127 (gcc-core-mesboot0@2.95.3) alignedtext
grestore
% 139781154519632
gsave
1 setlinewidth
0 0 0 nodecolor
newpath 403.1458 496 moveto
275.1458 496 lineto
275.1458 478 lineto
403.1458 478 lineto
closepath stroke
0 0 0 nodecolor
9 /Helvetica set_font
283.1458 484.8 moveto 112 (binutils-mesboot0@2.14) alignedtext
grestore
% 139781154519456->139781154519632
gsave
1 setlinewidth
0.11765 0.93725 0.72157 edgecolor
newpath 339.1458 525.9874 moveto
339.1458 520.6446 339.1458 513.3906 339.1458 506.6531 curveto
stroke
0.11765 0.93725 0.72157 edgecolor
newpath 342.6459 506.2305 moveto
339.1458 496.2305 lineto
335.6459 506.2305 lineto
closepath fill
1 setlinewidth
solid
0.11765 0.93725 0.72157 edgecolor
newpath 342.6459 506.2305 moveto
339.1458 496.2305 lineto
335.6459 506.2305 lineto
closepath stroke
grestore
% 139781154520688
gsave
1 setlinewidth
0 0 0 nodecolor
newpath 152.1458 401 moveto
30.1458 401 lineto
30.1458 383 lineto
152.1458 383 lineto
closepath stroke
0 0 0 nodecolor
9 /Helvetica set_font
38.1458 389.8 moveto 106 (bash-mesboot0@2.05b) alignedtext
grestore
% 139781154519456->139781154520688
gsave
1 setlinewidth
0.11765 0.93725 0.72157 edgecolor
newpath 318.5796 525.9334 moveto
300.8951 518.7577 274.8796 507.626 253.1458 496 curveto
199.8802 467.5068 140.833 427.7291 110.8917 406.9288 curveto
stroke
0.11765 0.93725 0.72157 edgecolor
newpath 112.7746 403.9748 moveto
102.5726 401.1164 lineto
108.7654 409.7129 lineto
closepath fill
1 setlinewidth
solid
0.11765 0.93725 0.72157 edgecolor
newpath 112.7746 403.9748 moveto
102.5726 401.1164 lineto
108.7654 409.7129 lineto
closepath stroke
grestore
% 139781034971312
gsave
1 setlinewidth
0 0 0 nodecolor
newpath 523.1458 401 moveto
407.1458 401 lineto
407.1458 383 lineto
523.1458 383 lineto
closepath stroke
0 0 0 nodecolor
9 /Helvetica set_font
415.1458 389.8 moveto 100 (bzip2-mesboot@1.0.8) alignedtext
grestore
% 139781154519456->139781034971312
gsave
1 setlinewidth
0.11765 0.93725 0.72157 edgecolor
newpath 364.2149 525.8848 moveto
378.6982 519.9001 396.0048 510.2844 406.1458 496 curveto
423.4049 471.6892 402.7694 455.5432 418.1458 430 curveto
423.7109 420.7553 432.5013 412.9198 440.982 406.8724 curveto
stroke
0.11765 0.93725 0.72157 edgecolor
newpath 443.126 409.6515 moveto
449.5595 401.2336 lineto
439.2807 403.8022 lineto
closepath fill
1 setlinewidth
solid
0.11765 0.93725 0.72157 edgecolor
newpath 443.126 409.6515 moveto
449.5595 401.2336 lineto
439.2807 403.8022 lineto
closepath stroke
grestore
% 139781154520160
gsave
1 setlinewidth
0 0 0 nodecolor
newpath 269.1458 401 moveto
153.1458 401 lineto
153.1458 383 lineto
269.1458 383 lineto
closepath stroke
0 0 0 nodecolor
9 /Helvetica set_font
161.1458 389.8 moveto 100 (diffutils-mesboot@2.7) alignedtext
grestore
% 139781154519456->139781154520160
gsave
1 setlinewidth
0.11765 0.93725 0.72157 edgecolor
newpath 317.2289 525.8936 moveto
302.3021 519.5295 282.842 509.4854 269.1458 496 curveto
243.8861 471.129 226.3079 432.9274 217.5453 410.7079 curveto
stroke
0.11765 0.93725 0.72157 edgecolor
newpath 220.766 409.3294 moveto
213.9568 401.2124 lineto
214.218 411.804 lineto
closepath fill
1 setlinewidth
solid
0.11765 0.93725 0.72157 edgecolor
newpath 220.766 409.3294 moveto
213.9568 401.2124 lineto
214.218 411.804 lineto
closepath stroke
grestore
% 139781034971664
gsave
1 setlinewidth
0 0 0 nodecolor
newpath 132.1458 353 moveto
22.1458 353 lineto
22.1458 335 lineto
132.1458 335 lineto
closepath stroke
0 0 0 nodecolor
9 /Helvetica set_font
30.1458 341.8 moveto 94 (gzip-mesboot@1.2.4) alignedtext
grestore
% 139781154519456->139781034971664
gsave
1 setlinewidth
0.11765 0.93725 0.72157 edgecolor
newpath 267.3753 526.2662 moveto
192.9922 513.9353 80.6784 482.1962 30.1458 401 curveto
20.4129 385.3611 36.8195 369.4568 52.8567 358.6138 curveto
stroke
0.11765 0.93725 0.72157 edgecolor
newpath 54.9552 361.4287 moveto
61.5599 353.1444 lineto
51.2306 355.5019 lineto
closepath fill
1 setlinewidth
solid
0.11765 0.93725 0.72157 edgecolor
newpath 54.9552 361.4287 moveto
61.5599 353.1444 lineto
51.2306 355.5019 lineto
closepath stroke
grestore
% 139781154519984
gsave
1 setlinewidth
0 0 0 nodecolor
newpath 388.1458 401 moveto
270.1458 401 lineto
270.1458 383 lineto
388.1458 383 lineto
closepath stroke
0 0 0 nodecolor
9 /Helvetica set_font
278.1458 389.8 moveto 102 (patch-mesboot@2.5.9) alignedtext
grestore
% 139781154519456->139781154519984
gsave
1 setlinewidth
0.11765 0.93725 0.72157 edgecolor
newpath 313.6094 525.9187 moveto
299.5788 520.0227 283.3922 510.4868 275.1458 496 curveto
257.6094 465.1931 289.5256 428.1961 311.3114 407.9897 curveto
stroke
0.11765 0.93725 0.72157 edgecolor
newpath 313.8945 410.3764 moveto
319.0408 401.1154 lineto
309.2425 405.1458 lineto
closepath fill
1 setlinewidth
solid
0.11765 0.93725 0.72157 edgecolor
newpath 313.8945 410.3764 moveto
319.0408 401.1154 lineto
309.2425 405.1458 lineto
closepath stroke
grestore
% 139781154519808
gsave
1 setlinewidth
0 0 0 nodecolor
newpath 634.1458 401 moveto
524.1458 401 lineto
524.1458 383 lineto
634.1458 383 lineto
closepath stroke
0 0 0 nodecolor
9 /Helvetica set_font
532.1458 389.8 moveto 94 (sed-mesboot0@1.18) alignedtext
grestore
% 139781154519456->139781154519808
gsave
1 setlinewidth
0.11765 0.93725 0.72157 edgecolor
newpath 366.3889 525.9853 moveto
381.5806 520.1122 399.526 510.5771 410.1458 496 curveto
427.7015 471.9025 401.6147 451.6186 422.1458 430 curveto
429.354 422.41 481.6952 411.065 523.9919 402.9401 curveto
stroke
0.11765 0.93725 0.72157 edgecolor
newpath 524.7704 406.3549 moveto
533.9424 401.0517 lineto
523.4652 399.4776 lineto
closepath fill
1 setlinewidth
solid
0.11765 0.93725 0.72157 edgecolor
newpath 524.7704 406.3549 moveto
533.9424 401.0517 lineto
523.4652 399.4776 lineto
closepath stroke
grestore
% 139781154520512
gsave
1 setlinewidth
0 0 0 nodecolor
newpath 511.6458 448 moveto
418.6458 448 lineto
418.6458 430 lineto
511.6458 430 lineto
closepath stroke
0 0 0 nodecolor
9 /Helvetica set_font
426.6458 436.8 moveto 77 (tcc-boot@0.9.27) alignedtext
grestore
% 139781154519456->139781154520512
gsave
1 setlinewidth
0.11765 0.93725 0.72157 edgecolor
newpath 362.0378 525.9921 moveto
378.6389 519.4998 401.0787 509.2581 418.1458 496 curveto
432.5234 484.8311 445.5445 468.5976 454.2155 456.4812 curveto
stroke
0.11765 0.93725 0.72157 edgecolor
newpath 457.1513 458.3892 moveto
459.9488 448.1703 lineto
451.3894 454.4142 lineto
closepath fill
1 setlinewidth
solid
0.11765 0.93725 0.72157 edgecolor
newpath 457.1513 458.3892 moveto
459.9488 448.1703 lineto
451.3894 454.4142 lineto
closepath stroke
grestore
% 139781034971488
gsave
1 setlinewidth
0 0 0 nodecolor
newpath 520.6458 353 moveto
401.6458 353 lineto
401.6458 335 lineto
520.6458 335 lineto
closepath stroke
0 0 0 nodecolor
9 /Helvetica set_font
409.6458 341.8 moveto 103 (make-mesboot0@3.80) alignedtext
grestore
% 139781154519456->139781034971488
gsave
1 setlinewidth
0.11765 0.93725 0.72157 edgecolor
newpath 362.4111 525.9242 moveto
375.9374 519.9131 391.8977 510.2556 400.1458 496 curveto
425.3131 452.5024 379.6531 426.881 404.1458 383 curveto
410.1983 372.1565 420.7958 363.8369 431.224 357.7862 curveto
stroke
0.11765 0.93725 0.72157 edgecolor
newpath 433.0081 360.8024 moveto
440.226 353.0467 lineto
429.7469 354.6085 lineto
closepath fill
1 setlinewidth
solid
0.11765 0.93725 0.72157 edgecolor
newpath 433.0081 360.8024 moveto
440.226 353.0467 lineto
429.7469 354.6085 lineto
closepath stroke
grestore
% 139781034972896
gsave
1 setlinewidth
0 0 0 nodecolor
newpath 568.6458 142 moveto
473.6458 142 lineto
473.6458 124 lineto
568.6458 124 lineto
closepath stroke
0 0 0 nodecolor
9 /Helvetica set_font
481.6458 130.8 moveto 79 (gash-boot@0.2.0) alignedtext
grestore
% 139781154519456->139781034972896
gsave
1 setlinewidth
0.11765 0.93725 0.72157 edgecolor
newpath 410.8509 533.7074 moveto
463.2174 531.0501 534.7862 522.2268 592.1458 496 curveto
621.9579 482.3689 634.4482 477.7816 648.1458 448 curveto
673.0696 393.8103 653.5123 229.3026 618.1458 181.2721 curveto
605.3176 163.8503 584.3228 152.5268 565.1403 145.345 curveto
stroke
0.11765 0.93725 0.72157 edgecolor
newpath 566.2159 142.0136 moveto
555.6211 142.0501 lineto
563.9262 148.6286 lineto
closepath fill
1 setlinewidth
solid
0.11765 0.93725 0.72157 edgecolor
newpath 566.2159 142.0136 moveto
555.6211 142.0501 lineto
563.9262 148.6286 lineto
closepath stroke
grestore
% 139781034972368
gsave
1 setlinewidth
0 0 0 nodecolor
newpath 602.1458 203 moveto
486.1458 203 lineto
486.1458 185 lineto
602.1458 185 lineto
closepath stroke
0 0 0 nodecolor
9 /Helvetica set_font
494.1458 191.8 moveto 100 (gash-utils-boot@0.1.0) alignedtext
grestore
% 139781154519456->139781034972368
gsave
1 setlinewidth
0.11765 0.93725 0.72157 edgecolor
newpath 410.8133 526.6546 moveto
502.095 515.2699 648.1458 489.3444 648.1458 440 curveto
648.1458 440 648.1458 440 648.1458 391 curveto
648.1458 316.0339 588.0449 241.7781 559.2197 210.4751 curveto
stroke
0.11765 0.93725 0.72157 edgecolor
newpath 561.7131 208.0176 moveto
552.3065 203.1424 lineto
556.6197 212.8195 lineto
closepath fill
1 setlinewidth
solid
0.11765 0.93725 0.72157 edgecolor
newpath 561.7131 208.0176 moveto
552.3065 203.1424 lineto
556.6197 212.8195 lineto
closepath stroke
grestore
% 139781034973072
gsave
1 setlinewidth
0 0 0 nodecolor
newpath 264.6458 87 moveto
203.6458 87 lineto
203.6458 69 lineto
264.6458 69 lineto
closepath stroke
0 0 0 nodecolor
9 /Helvetica set_font
211.6458 75.8 moveto 45 (bootar@1) alignedtext
grestore
% 139781154519456->139781034973072
gsave
1 setlinewidth
0.11765 0.93725 0.72157 edgecolor
newpath 267.5701 527.95 moveto
171.0596 517.7808 11.1458 492.9429 11.1458 440 curveto
11.1458 440 11.1458 440 11.1458 343 curveto
11.1458 318.2036 8.4821 138.6345 25.1458 120.2721 curveto
47.2117 95.9567 139.209 85.5166 193.5166 81.4015 curveto
stroke
0.11765 0.93725 0.72157 edgecolor
newpath 193.795 84.8906 moveto
203.5184 80.6827 lineto
193.2932 77.9086 lineto
closepath fill
1 setlinewidth
solid
0.11765 0.93725 0.72157 edgecolor
newpath 193.795 84.8906 moveto
203.5184 80.6827 lineto
193.2932 77.9086 lineto
closepath stroke
grestore
% 139781131267872
gsave
1 setlinewidth
0 0 0 nodecolor
267.1458 23 77.1494 12.96 ellipse_path stroke
0 0 0 nodecolor
9 /Helvetica set_font
220.6458 20.8 moveto 93 (guile-bootstrap@2.0) alignedtext
grestore
% 139781154519456->139781131267872
gsave
1 setlinewidth
0.11765 0.93725 0.72157 edgecolor
newpath 267.5293 531.135 moveto
193.0891 527.038 82.4637 517.4698 46.1458 496 curveto
19.5922 480.3025 5.1458 470.8465 5.1458 440 curveto
5.1458 440 5.1458 440 5.1458 132 curveto
5.1458 103.912 -8.7589 89.7738 10.1458 69 curveto
33.0909 43.7864 117.9037 32.6656 183.8977 27.7818 curveto
stroke
0.11765 0.93725 0.72157 edgecolor
newpath 184.1716 31.2713 moveto
193.9013 27.0779 lineto
183.6803 24.2886 lineto
closepath fill
1 setlinewidth
solid
0.11765 0.93725 0.72157 edgecolor
newpath 184.1716 31.2713 moveto
193.9013 27.0779 lineto
183.6803 24.2886 lineto
closepath stroke
grestore
% 139781154519632->139781154520688
gsave
1 setlinewidth
0.078431 0.27059 0.5451 edgecolor
newpath 323.8011 477.989 moveto
301.1328 466.3651 257.163 444.6182 218.1458 430 curveto
190.4554 419.6255 158.4918 410.3269 133.5585 403.6465 curveto
stroke
0.078431 0.27059 0.5451 edgecolor
newpath 134.2449 400.2078 moveto
123.6826 401.0384 lineto
132.4575 406.9758 lineto
closepath fill
1 setlinewidth
solid
0.078431 0.27059 0.5451 edgecolor
newpath 134.2449 400.2078 moveto
123.6826 401.0384 lineto
132.4575 406.9758 lineto
closepath stroke
grestore
% 139781154519632->139781034971312
gsave
1 setlinewidth
0.078431 0.27059 0.5451 edgecolor
newpath 355.2943 477.9725 moveto
367.77 471.2066 384.9149 460.6218 397.1458 448 curveto
403.6703 441.267 401.6071 436.7191 408.1458 430 curveto
417.3099 420.5831 429.2889 412.3568 439.8989 406.0676 curveto
stroke
0.078431 0.27059 0.5451 edgecolor
newpath 441.7806 409.0245 moveto
448.7653 401.058 lineto
438.3372 402.93 lineto
closepath fill
1 setlinewidth
solid
0.078431 0.27059 0.5451 edgecolor
newpath 441.7806 409.0245 moveto
448.7653 401.058 lineto
438.3372 402.93 lineto
closepath stroke
grestore
% 139781154519632->139781154520160
gsave
1 setlinewidth
0.078431 0.27059 0.5451 edgecolor
newpath 330.3898 477.9428 moveto
317.914 466.6377 294.0968 445.6948 272.1458 430 curveto
260.1408 421.4165 246.0969 412.8081 234.5124 406.0572 curveto
stroke
0.078431 0.27059 0.5451 edgecolor
newpath 236.2505 403.0193 moveto
225.8352 401.0774 lineto
232.7662 409.0905 lineto
closepath fill
1 setlinewidth
solid
0.078431 0.27059 0.5451 edgecolor
newpath 236.2505 403.0193 moveto
225.8352 401.0774 lineto
232.7662 409.0905 lineto
closepath stroke
grestore
% 139781154519632->139781034971664
gsave
1 setlinewidth
0.078431 0.27059 0.5451 edgecolor
newpath 279.1657 477.965 moveto
198.7967 465.8281 62.7986 440.0124 33.1458 401 curveto
22.0983 386.4654 38.4326 370.0675 54.2373 358.791 curveto
stroke
0.078431 0.27059 0.5451 edgecolor
newpath 56.4031 361.5538 moveto
62.786 353.0975 lineto
52.5228 355.7277 lineto
closepath fill
1 setlinewidth
solid
0.078431 0.27059 0.5451 edgecolor
newpath 56.4031 361.5538 moveto
62.786 353.0975 lineto
52.5228 355.7277 lineto
closepath stroke
grestore
% 139781154519632->139781154519984
gsave
1 setlinewidth
0.078431 0.27059 0.5451 edgecolor
newpath 338.2584 477.7469 moveto
336.6606 462.8877 333.2652 431.3101 331.1003 411.1764 curveto
stroke
0.078431 0.27059 0.5451 edgecolor
newpath 334.5661 410.6703 moveto
330.017 401.1018 lineto
327.6062 411.4188 lineto
closepath fill
1 setlinewidth
solid
0.078431 0.27059 0.5451 edgecolor
newpath 334.5661 410.6703 moveto
330.017 401.1018 lineto
327.6062 411.4188 lineto
closepath stroke
grestore
% 139781154519632->139781154519808
gsave
1 setlinewidth
0.078431 0.27059 0.5451 edgecolor
newpath 357.0083 477.8931 moveto
370.6207 471.1539 389.3162 460.6419 403.1458 448 curveto
410.4295 441.3419 407.9145 435.4432 416.1458 430 curveto
432.477 419.2006 476.881 409.5057 515.2249 402.7517 curveto
stroke
0.078431 0.27059 0.5451 edgecolor
newpath 516.0728 406.1573 moveto
525.3348 401.0128 lineto
514.8862 399.2586 lineto
closepath fill
1 setlinewidth
solid
0.078431 0.27059 0.5451 edgecolor
newpath 516.0728 406.1573 moveto
525.3348 401.0128 lineto
514.8862 399.2586 lineto
closepath stroke
grestore
% 139781154519632->139781154520512
gsave
1 setlinewidth
0.078431 0.27059 0.5451 edgecolor
newpath 361.0933 477.9874 moveto
381.1158 470.6776 410.9371 459.7905 433.528 451.543 curveto
stroke
0.078431 0.27059 0.5451 edgecolor
newpath 434.8338 454.7923 moveto
443.027 448.0751 lineto
432.4331 448.2168 lineto
closepath fill
1 setlinewidth
solid
0.078431 0.27059 0.5451 edgecolor
newpath 434.8338 454.7923 moveto
443.027 448.0751 lineto
432.4331 448.2168 lineto
closepath stroke
grestore
% 139781154519632->139781034971488
gsave
1 setlinewidth
0.078431 0.27059 0.5451 edgecolor
newpath 355.0299 477.9425 moveto
366.1645 471.4255 380.3927 461.1747 388.1458 448 curveto
402.97 422.8095 381.8756 407.2817 398.1458 383 curveto
405.6076 371.864 417.5389 363.4723 429.0213 357.4462 curveto
stroke
0.078431 0.27059 0.5451 edgecolor
newpath 430.5417 360.5988 moveto
438.0397 353.1134 lineto
427.5103 354.2892 lineto
closepath fill
1 setlinewidth
solid
0.078431 0.27059 0.5451 edgecolor
newpath 430.5417 360.5988 moveto
438.0397 353.1134 lineto
427.5103 354.2892 lineto
closepath stroke
grestore
% 139781154519632->139781034972896
gsave
1 setlinewidth
0.078431 0.27059 0.5451 edgecolor
newpath 355.4702 477.8358 moveto
367.0219 471.2658 382.0234 460.9954 391.1458 448 curveto
408.4384 423.3658 388.721 404.1389 410.1458 383 curveto
445.608 348.0112 478.391 383.0222 518.1458 353 curveto
518.2229 352.9418 576.0975 258.0837 576.1458 258 curveto
589.1366 235.5194 597.7241 231.8854 604.1458 206.7279 curveto
606.944 195.7657 609.8314 191.0534 604.1458 181.2721 curveto
594.4625 164.6133 576.4703 153.3383 559.7067 145.9917 curveto
stroke
0.078431 0.27059 0.5451 edgecolor
newpath 560.6344 142.5924 moveto
550.0506 142.109 lineto
558.023 149.0871 lineto
closepath fill
1 setlinewidth
solid
0.078431 0.27059 0.5451 edgecolor
newpath 560.6344 142.5924 moveto
550.0506 142.109 lineto
558.023 149.0871 lineto
closepath stroke
grestore
% 139781154519632->139781034972368
gsave
1 setlinewidth
0.078431 0.27059 0.5451 edgecolor
newpath 347.5674 477.6194 moveto
362.0529 462.2685 390.1458 427.9871 390.1458 393 curveto
390.1458 393 390.1458 393 390.1458 295 curveto
390.1458 244.7655 448.4976 218.4844 493.3637 205.7017 curveto
stroke
0.078431 0.27059 0.5451 edgecolor
newpath 494.5365 209.0106 moveto
503.281 203.0285 lineto
492.7146 202.2518 lineto
closepath fill
1 setlinewidth
solid
0.078431 0.27059 0.5451 edgecolor
newpath 494.5365 209.0106 moveto
503.281 203.0285 lineto
492.7146 202.2518 lineto
closepath stroke
grestore
% 139781154519632->139781034973072
gsave
1 setlinewidth
0.078431 0.27059 0.5451 edgecolor
newpath 274.9014 480.7814 moveto
210.1988 474.7683 115.3391 463.6619 82.1458 448 curveto
53.9722 434.7066 44.5343 428.6304 30.1458 401 curveto
15.7387 373.3337 7.7762 143.8956 28.1458 120.2721 curveto
49.1919 95.864 139.3455 85.4869 193.1668 81.4005 curveto
stroke
0.078431 0.27059 0.5451 edgecolor
newpath 193.6916 84.8719 moveto
203.4153 80.6648 lineto
193.1904 77.8899 lineto
closepath fill
1 setlinewidth
solid
0.078431 0.27059 0.5451 edgecolor
newpath 193.6916 84.8719 moveto
203.4153 80.6648 lineto
193.1904 77.8899 lineto
closepath stroke
grestore
% 139781154519632->139781131267872
gsave
1 setlinewidth
0.078431 0.27059 0.5451 edgecolor
newpath 394.4605 477.9672 moveto
472.9977 465.3775 610.9016 438.5031 643.1458 401 curveto
659.682 381.7669 654.1458 370.3645 654.1458 345 curveto
654.1458 345 654.1458 345 654.1458 132 curveto
654.1458 110.4304 649.4336 90.6542 614.1458 69 curveto
571.4576 42.8046 439.7946 31.685 351.4889 27.0883 curveto
stroke
0.078431 0.27059 0.5451 edgecolor
newpath 351.6429 23.5917 moveto
341.4799 26.5854 lineto
351.2916 30.5829 lineto
closepath fill
1 setlinewidth
solid
0.078431 0.27059 0.5451 edgecolor
newpath 351.6429 23.5917 moveto
341.4799 26.5854 lineto
351.2916 30.5829 lineto
closepath stroke
grestore
% 139781154520688->139781034971488
gsave
1 setlinewidth
0.83137 1 1 edgecolor
newpath 152.2438 383.404 moveto
217.9395 375.2365 322.2149 362.2725 391.1615 353.7008 curveto
stroke
0.83137 1 1 edgecolor
newpath 391.9985 357.1237 moveto
401.4902 352.4166 lineto
391.1348 350.1772 lineto
closepath fill
1 setlinewidth
solid
0.83137 1 1 edgecolor
newpath 391.9985 357.1237 moveto
401.4902 352.4166 lineto
391.1348 350.1772 lineto
closepath stroke
grestore
% 139781154520688->139781034972896
gsave
1 setlinewidth
0.83137 1 1 edgecolor
newpath 103.2771 382.952 moveto
112.3063 376.1748 123.933 365.5847 129.1458 353 curveto
132.2073 345.609 131.8353 342.5344 129.1458 335 curveto
128.2167 332.3973 67.5197 260.3979 66.1458 258 curveto
48.6804 227.5177 23.4406 207.2003 47.1458 181.2721 curveto
76.9546 148.6679 399.2833 150.9892 443.1458 145.7279 curveto
449.7231 144.939 456.5998 144.0294 463.428 143.073 curveto
stroke
0.83137 1 1 edgecolor
newpath 463.956 146.5332 moveto
473.3567 141.6468 lineto
462.9606 139.6043 lineto
closepath fill
1 setlinewidth
solid
0.83137 1 1 edgecolor
newpath 463.956 146.5332 moveto
473.3567 141.6468 lineto
462.9606 139.6043 lineto
closepath stroke
grestore
% 139781154520688->139781034972368
gsave
1 setlinewidth
0.83137 1 1 edgecolor
newpath 100.625 382.8895 moveto
109.5615 375.2252 123.3117 363.3864 135.1458 353 curveto
168.2677 323.93 170.5004 308.1815 209.1458 287 curveto
250.85 264.142 267.6976 274.9141 312.1458 258 curveto
329.2373 251.4961 331.9042 246.0949 349.1458 240 curveto
375.5229 230.6757 445.8834 215.2744 494.4503 205.132 curveto
stroke
0.83137 1 1 edgecolor
newpath 495.381 208.5135 moveto
504.4595 203.0517 lineto
493.9565 201.6599 lineto
closepath fill
1 setlinewidth
solid
0.83137 1 1 edgecolor
newpath 495.381 208.5135 moveto
504.4595 203.0517 lineto
493.9565 201.6599 lineto
closepath stroke
grestore
% 139781154520688->139781034973072
gsave
1 setlinewidth
0.83137 1 1 edgecolor
newpath 64.4989 382.9886 moveto
50.1165 377.1515 33.6165 367.6515 25.1458 353 curveto
23.0983 349.4585 7.2249 148.7252 31.1458 120.2721 curveto
51.5408 96.0128 140.0749 85.5945 193.2564 81.4576 curveto
stroke
0.83137 1 1 edgecolor
newpath 193.6746 84.9364 moveto
203.3907 80.7118 lineto
193.1608 77.9553 lineto
closepath fill
1 setlinewidth
solid
0.83137 1 1 edgecolor
newpath 193.6746 84.9364 moveto
203.3907 80.7118 lineto
193.1608 77.9553 lineto
closepath stroke
grestore
% 139781154520688->139781131267872
gsave
1 setlinewidth
0.83137 1 1 edgecolor
newpath 61.5482 382.9474 moveto
45.9286 377.162 27.8352 367.7265 17.1458 353 curveto
2.3378 332.5995 8.1458 322.2083 8.1458 297 curveto
8.1458 297 8.1458 297 8.1458 132 curveto
8.1458 103.912 -5.7381 89.7927 13.1458 69 curveto
35.6881 44.1791 118.7606 32.9988 183.8404 27.9937 curveto
stroke
0.83137 1 1 edgecolor
newpath 184.4007 31.4622 moveto
194.1188 27.2423 lineto
183.8902 24.4808 lineto
closepath fill
1 setlinewidth
solid
0.83137 1 1 edgecolor
newpath 184.4007 31.4622 moveto
194.1188 27.2423 lineto
183.8902 24.4808 lineto
closepath stroke
grestore
% 139781034971840
gsave
1 setlinewidth
0 0 0 nodecolor
newpath 381.6458 305 moveto
206.6458 305 lineto
206.6458 287 lineto
381.6458 287 lineto
closepath stroke
0 0 0 nodecolor
9 /Helvetica set_font
214.6458 293.8 moveto 159 (tcc-boot0@0.9.26-1103-g6e62e0e) alignedtext
grestore
% 139781154520688->139781034971840
gsave
1 setlinewidth
0.83137 1 1 edgecolor
newpath 120.1011 382.9723 moveto
142.9017 376.2062 175.2186 365.6214 202.1458 353 curveto
228.0977 340.8358 255.9546 323.1619 274.1314 310.9372 curveto
stroke
0.83137 1 1 edgecolor
newpath 276.4027 313.6248 moveto
282.6929 305.0993 lineto
272.459 307.8413 lineto
closepath fill
1 setlinewidth
solid
0.83137 1 1 edgecolor
newpath 276.4027 313.6248 moveto
282.6929 305.0993 lineto
272.459 307.8413 lineto
closepath stroke
grestore
% 139781034971312->139781034971488
gsave
1 setlinewidth
0.49804 1 0.80392 edgecolor
newpath 464.4491 382.9874 moveto
463.9845 377.6446 463.3537 370.3906 462.7678 363.6531 curveto
stroke
0.49804 1 0.80392 edgecolor
newpath 466.2147 362.8897 moveto
461.8615 353.2305 lineto
459.2411 363.4962 lineto
closepath fill
1 setlinewidth
solid
0.49804 1 0.80392 edgecolor
newpath 466.2147 362.8897 moveto
461.8615 353.2305 lineto
459.2411 363.4962 lineto
closepath stroke
grestore
% 139781034971312->139781034972896
gsave
1 setlinewidth
0.49804 1 0.80392 edgecolor
newpath 481.1049 382.9675 moveto
494.4984 375.8955 513.8405 364.8934 529.1458 353 curveto
571.6229 319.9921 588.2667 309.3973 604.1458 258 curveto
614.2256 225.374 625.6007 210.6215 608.1458 181.2721 curveto
597.9889 164.1938 579.2663 152.9003 561.7844 145.6496 curveto
stroke
0.49804 1 0.80392 edgecolor
newpath 562.8531 142.3115 moveto
552.2621 142.0263 lineto
560.3636 148.8539 lineto
closepath fill
1 setlinewidth
solid
0.49804 1 0.80392 edgecolor
newpath 562.8531 142.3115 moveto
552.2621 142.0263 lineto
560.3636 148.8539 lineto
closepath stroke
grestore
% 139781034971312->139781034972368
gsave
1 setlinewidth
0.49804 1 0.80392 edgecolor
newpath 486.3516 382.8837 moveto
499.4495 376.7224 515.3774 366.9159 524.1458 353 curveto
551.8544 309.025 549.6537 244.4366 546.5284 213.2203 curveto
stroke
0.49804 1 0.80392 edgecolor
newpath 549.9725 212.5341 moveto
545.3458 203.0029 lineto
543.0189 213.3391 lineto
closepath fill
1 setlinewidth
solid
0.49804 1 0.80392 edgecolor
newpath 549.9725 212.5341 moveto
545.3458 203.0029 lineto
543.0189 213.3391 lineto
closepath stroke
grestore
% 139781034971312->139781034973072
gsave
1 setlinewidth
0.49804 1 0.80392 edgecolor
newpath 490.0275 382.9164 moveto
506.0995 376.7201 526.6423 366.8619 541.1458 353 curveto
617.3056 280.2098 672.1798 181.0741 586.1458 120.2721 curveto
536.9248 85.4865 356.8879 79.7712 275.0843 79.0047 curveto
stroke
0.49804 1 0.80392 edgecolor
newpath 274.9381 75.5036 moveto
264.9128 78.9304 lineto
274.8869 82.5034 lineto
closepath fill
1 setlinewidth
solid
0.49804 1 0.80392 edgecolor
newpath 274.9381 75.5036 moveto
264.9128 78.9304 lineto
274.8869 82.5034 lineto
closepath stroke
grestore
% 139781034971312->139781131267872
gsave
1 setlinewidth
0.49804 1 0.80392 edgecolor
newpath 490.9057 382.8757 moveto
508.6397 376.5034 532.1527 366.4568 550.1458 353 curveto
615.2192 304.3325 642.1458 276.2592 642.1458 195 curveto
642.1458 195 642.1458 195 642.1458 132 curveto
642.1458 70.489 453.4798 41.9019 343.7902 30.4795 curveto
stroke
0.49804 1 0.80392 edgecolor
newpath 344.0589 26.9889 moveto
333.7562 29.4595 lineto
343.3509 33.953 lineto
closepath fill
1 setlinewidth
solid
0.49804 1 0.80392 edgecolor
newpath 344.0589 26.9889 moveto
333.7562 29.4595 lineto
343.3509 33.953 lineto
closepath stroke
grestore
% 139781034971312->139781034971840
gsave
1 setlinewidth
0.49804 1 0.80392 edgecolor
newpath 483.835 382.8825 moveto
505.5371 372.3464 536.5142 353.1549 521.1458 335 curveto
504.2894 315.0872 445.5653 305.6018 392.0723 301.087 curveto
stroke
0.49804 1 0.80392 edgecolor
newpath 392.0524 297.5746 moveto
381.8074 300.2746 lineto
391.5001 304.5528 lineto
closepath fill
1 setlinewidth
solid
0.49804 1 0.80392 edgecolor
newpath 392.0524 297.5746 moveto
381.8074 300.2746 lineto
391.5001 304.5528 lineto
closepath stroke
grestore
% 139781154520160->139781034971488
gsave
1 setlinewidth
0 1 1 edgecolor
newpath 254.6925 382.9874 moveto
297.0919 375.1859 361.6368 363.3097 407.2522 354.9164 curveto
stroke
0 1 1 edgecolor
newpath 408.0578 358.327 moveto
417.2593 353.0751 lineto
406.791 351.4426 lineto
closepath fill
1 setlinewidth
solid
0 1 1 edgecolor
newpath 408.0578 358.327 moveto
417.2593 353.0751 lineto
406.791 351.4426 lineto
closepath stroke
grestore
% 139781154520160->139781034972896
gsave
1 setlinewidth
0 1 1 edgecolor
newpath 201.6671 382.8662 moveto
162.6314 348.9385 17.9446 218.7234 52.1458 181.2721 curveto
81.5629 149.0595 399.8357 150.948 443.1458 145.7279 curveto
449.7226 144.9352 456.5991 144.0234 463.4271 143.0656 curveto
stroke
0 1 1 edgecolor
newpath 463.9555 146.5257 moveto
473.3557 141.6382 lineto
462.9593 139.597 lineto
closepath fill
1 setlinewidth
solid
0 1 1 edgecolor
newpath 463.9555 146.5257 moveto
473.3557 141.6382 lineto
462.9593 139.597 lineto
closepath stroke
grestore
% 139781154520160->139781034972368
gsave
1 setlinewidth
0 1 1 edgecolor
newpath 247.0357 382.9394 moveto
286.1251 372.1715 347.3143 349.1046 379.1458 305 curveto
396.2513 281.2993 369.863 261.9658 389.1458 240 curveto
396.6061 231.5017 456.2887 215.8282 499.3677 205.4074 curveto
stroke
0 1 1 edgecolor
newpath 500.1916 208.8091 moveto
509.0998 203.0737 lineto
498.5593 202.0021 lineto
closepath fill
1 setlinewidth
solid
0 1 1 edgecolor
newpath 500.1916 208.8091 moveto
509.0998 203.0737 lineto
498.5593 202.0021 lineto
closepath stroke
grestore
% 139781154520160->139781034973072
gsave
1 setlinewidth
0 1 1 edgecolor
newpath 196.8066 382.9812 moveto
184.3141 375.7505 165.9347 364.5126 151.1458 353 curveto
141.967 345.8546 140.7687 342.8074 132.1458 335 curveto
93.3727 299.8937 64.8922 305.5699 43.1458 258 curveto
30.4209 230.1645 23.9248 144.09 43.1458 120.2721 curveto
61.6439 97.3499 142.928 86.5349 193.3097 81.9489 curveto
stroke
0 1 1 edgecolor
newpath 193.8965 85.4113 moveto
203.5578 81.0627 lineto
193.2934 78.4373 lineto
closepath fill
1 setlinewidth
solid
0 1 1 edgecolor
newpath 193.8965 85.4113 moveto
203.5578 81.0627 lineto
193.2934 78.4373 lineto
closepath stroke
grestore
% 139781154520160->139781131267872
gsave
1 setlinewidth
0 1 1 edgecolor
newpath 153.5925 382.9977 moveto
101.2645 375.1552 30.9001 362.9623 22.1458 353 curveto
10.5294 339.7807 11.1458 212.598 11.1458 195 curveto
11.1458 195 11.1458 195 11.1458 132 curveto
11.1458 103.912 -2.7167 89.8121 16.1458 69 curveto
38.3695 44.4793 120.239 33.2513 184.5096 28.153 curveto
stroke
0 1 1 edgecolor
newpath 184.9537 31.6296 moveto
194.6617 27.3863 lineto
184.4265 24.6494 lineto
closepath fill
1 setlinewidth
solid
0 1 1 edgecolor
newpath 184.9537 31.6296 moveto
194.6617 27.3863 lineto
184.4265 24.6494 lineto
closepath stroke
grestore
% 139781154520160->139781034971840
gsave
1 setlinewidth
0 1 1 edgecolor
newpath 218.2223 382.9856 moveto
231.8746 367.524 262.0802 333.3153 280.0046 313.0153 curveto
stroke
0 1 1 edgecolor
newpath 282.8553 315.0747 moveto
286.8506 305.2621 lineto
277.6081 310.4415 lineto
closepath fill
1 setlinewidth
solid
0 1 1 edgecolor
newpath 282.8553 315.0747 moveto
286.8506 305.2621 lineto
277.6081 310.4415 lineto
closepath stroke
grestore
% 139781034971664->139781034972896
gsave
1 setlinewidth
0 1 1 edgecolor
newpath 71.0983 334.6602 moveto
52.8235 308.3783 1.8892 226.3574 43.1458 181.2721 curveto
73.268 148.3546 398.8414 151.0222 443.1458 145.7279 curveto
449.7234 144.9419 456.6004 144.0342 463.4286 143.0788 curveto
stroke
0 1 1 edgecolor
newpath 463.9563 146.539 moveto
473.3575 141.6536 lineto
462.9616 139.61 lineto
closepath fill
1 setlinewidth
solid
0 1 1 edgecolor
newpath 463.9563 146.539 moveto
473.3575 141.6536 lineto
462.9616 139.61 lineto
closepath stroke
grestore
% 139781034971664->139781034972368
gsave
1 setlinewidth
0 1 1 edgecolor
newpath 93.1366 334.9515 moveto
116.7565 323.281 162.5617 301.4766 203.1458 287 curveto
249.1491 270.5903 270.7222 288.153 309.1458 258 curveto
316.3453 252.3502 311.754 245.3957 319.1458 240 curveto
322.6581 237.4362 426.1078 217.4247 491.4953 204.9663 curveto
stroke
0 1 1 edgecolor
newpath 492.4722 208.3433 moveto
501.6416 203.0355 lineto
491.1636 201.4667 lineto
closepath fill
1 setlinewidth
solid
0 1 1 edgecolor
newpath 492.4722 208.3433 moveto
501.6416 203.0355 lineto
491.1636 201.4667 lineto
closepath stroke
grestore
% 139781034971664->139781034973072
gsave
1 setlinewidth
0 1 1 edgecolor
newpath 68.273 334.7679 moveto
61.0313 327.5741 51.0618 316.5054 45.1458 305 curveto
19.8394 255.7839 29.7862 236.5965 31.1458 181.2721 curveto
31.8127 154.1364 16.4893 140.8885 34.1458 120.2721 curveto
54.4152 96.6049 141.1452 85.9806 193.5094 81.6462 curveto
stroke
0 1 1 edgecolor
newpath 193.7993 85.1343 moveto
203.4942 80.8611 lineto
193.2506 78.1558 lineto
closepath fill
1 setlinewidth
solid
0 1 1 edgecolor
newpath 193.7993 85.1343 moveto
203.4942 80.8611 lineto
193.2506 78.1558 lineto
closepath stroke
grestore
% 139781034971664->139781131267872
gsave
1 setlinewidth
0 1 1 edgecolor
newpath 65.0512 334.7787 moveto
55.9191 327.9059 43.8519 317.2719 37.1458 305 curveto
24.535 281.9225 2.2916 89.1876 19.1458 69 curveto
40.0093 44.0101 120.3966 32.8678 184.068 27.918 curveto
stroke
0 1 1 edgecolor
newpath 184.4164 31.4019 moveto
194.1317 27.1756 lineto
183.9013 24.4209 lineto
closepath fill
1 setlinewidth
solid
0 1 1 edgecolor
newpath 184.4164 31.4019 moveto
194.1317 27.1756 lineto
183.9013 24.4209 lineto
closepath stroke
grestore
% 139781034971664->139781034971840
gsave
1 setlinewidth
0 1 1 edgecolor
newpath 114.9443 334.9874 moveto
151.3604 327.2679 206.5971 315.5587 246.1131 307.1821 curveto
stroke
0 1 1 edgecolor
newpath 246.9956 310.5728 moveto
256.0524 305.0751 lineto
245.5439 303.725 lineto
closepath fill
1 setlinewidth
solid
0 1 1 edgecolor
newpath 246.9956 310.5728 moveto
256.0524 305.0751 lineto
245.5439 303.725 lineto
closepath stroke
grestore
% 139781154519984->139781034971488
gsave
1 setlinewidth
0.66667 1 1 edgecolor
newpath 352.1385 382.9874 moveto
373.2084 375.6448 404.6361 364.6928 428.3404 356.4322 curveto
stroke
0.66667 1 1 edgecolor
newpath 429.6825 359.671 moveto
437.9738 353.0751 lineto
427.3789 353.0609 lineto
closepath fill
1 setlinewidth
solid
0.66667 1 1 edgecolor
newpath 429.6825 359.671 moveto
437.9738 353.0751 lineto
427.3789 353.0609 lineto
closepath stroke
grestore
% 139781154519984->139781034972896
gsave
1 setlinewidth
0.66667 1 1 edgecolor
newpath 343.5453 382.9832 moveto
355.5874 375.9207 372.8761 364.9239 386.1458 353 curveto
393.8917 346.0397 393.3543 341.9092 401.1458 335 curveto
440.3711 300.2163 574.1047 252.7873 599.1458 206.7279 curveto
604.5497 196.7882 604.6982 191.1296 599.1458 181.2721 curveto
589.9214 164.8953 572.4811 153.5422 556.4275 146.075 curveto
stroke
0.66667 1 1 edgecolor
newpath 557.778 142.8459 moveto
547.2081 142.1189 lineto
555.0176 149.2787 lineto
closepath fill
1 setlinewidth
solid
0.66667 1 1 edgecolor
newpath 557.778 142.8459 moveto
547.2081 142.1189 lineto
555.0176 149.2787 lineto
closepath stroke
grestore
% 139781154519984->139781034972368
gsave
1 setlinewidth
0.66667 1 1 edgecolor
newpath 347.6111 382.8719 moveto
359.6062 376.5528 374.4025 366.5707 382.1458 353 curveto
407.1328 309.2087 360.2234 279.0254 392.1458 240 curveto
399.1631 231.4213 457.5329 215.8212 499.8505 205.4327 curveto
stroke
0.66667 1 1 edgecolor
newpath 500.7944 208.8053 moveto
509.6839 203.041 lineto
499.14 202.0036 lineto
closepath fill
1 setlinewidth
solid
0.66667 1 1 edgecolor
newpath 500.7944 208.8053 moveto
509.6839 203.041 lineto
499.14 202.0036 lineto
closepath stroke
grestore
% 139781154519984->139781034973072
gsave
1 setlinewidth
0.66667 1 1 edgecolor
newpath 317.8089 382.9663 moveto
291.3977 364.4711 223.3562 318.0882 162.1458 287 curveto
131.3874 271.3781 117.8253 278.5906 90.1458 258 curveto
66.7354 240.5851 58.8009 234.2616 49.1458 206.7279 curveto
36.061 169.4135 41.0224 147.0191 70.1458 120.2721 curveto
103.6041 89.5439 156.5271 80.8833 193.1637 78.8399 curveto
stroke
0.66667 1 1 edgecolor
newpath 193.6554 82.3227 moveto
203.5026 78.4134 lineto
193.3668 75.3287 lineto
closepath fill
1 setlinewidth
solid
0.66667 1 1 edgecolor
newpath 193.6554 82.3227 moveto
203.5026 78.4134 lineto
193.3668 75.3287 lineto
closepath stroke
grestore
% 139781154519984->139781131267872
gsave
1 setlinewidth
0.66667 1 1 edgecolor
newpath 299.4199 382.9089 moveto
246.496 367.1309 135.2108 327.5639 68.1458 258 curveto
31.96 220.4659 37.961 197.7248 34.1458 145.7279 curveto
33.3179 134.4445 28.775 130.2297 34.1458 120.2721 curveto
53.8397 83.759 74.4721 86.3708 112.1458 69 curveto
143.9237 54.3477 181.5832 43.2821 211.8237 35.7907 curveto
stroke
0.66667 1 1 edgecolor
newpath 212.8768 39.1371 moveto
221.7756 33.3872 lineto
211.2333 32.3328 lineto
closepath fill
1 setlinewidth
solid
0.66667 1 1 edgecolor
newpath 212.8768 39.1371 moveto
221.7756 33.3872 lineto
211.2333 32.3328 lineto
closepath stroke
grestore
% 139781154519984->139781034971840
gsave
1 setlinewidth
0.66667 1 1 edgecolor
newpath 326.1617 382.9856 moveto
320.5589 367.9381 308.3448 335.1345 300.7272 314.6759 curveto
stroke
0.66667 1 1 edgecolor
newpath 303.9916 313.4122 moveto
297.2221 305.2621 lineto
297.4315 315.8548 lineto
closepath fill
1 setlinewidth
solid
0.66667 1 1 edgecolor
newpath 303.9916 313.4122 moveto
297.2221 305.2621 lineto
297.4315 315.8548 lineto
closepath stroke
grestore
% 139781154519808->139781034971488
gsave
1 setlinewidth
0 1 1 edgecolor
newpath 558.5918 382.9874 moveto
540.0087 375.7432 512.4129 364.9855 491.327 356.7655 curveto
stroke
0 1 1 edgecolor
newpath 492.4486 353.4463 moveto
481.8602 353.0751 lineto
489.9061 359.9682 lineto
closepath fill
1 setlinewidth
solid
0 1 1 edgecolor
newpath 492.4486 353.4463 moveto
481.8602 353.0751 lineto
489.9061 359.9682 lineto
closepath stroke
grestore
% 139781154519808->139781034972896
gsave
1 setlinewidth
0 1 1 edgecolor
newpath 581.8082 382.736 moveto
592.6981 348.285 632.2911 216.2632 611.1458 181.2721 curveto
600.7482 164.0662 581.7854 152.8129 563.938 145.6214 curveto
stroke
0 1 1 edgecolor
newpath 564.7924 142.2062 moveto
554.199 142.032 lineto
562.3716 148.7743 lineto
closepath fill
1 setlinewidth
solid
0 1 1 edgecolor
newpath 564.7924 142.2062 moveto
554.199 142.032 lineto
562.3716 148.7743 lineto
closepath stroke
grestore
% 139781154519808->139781034972368
gsave
1 setlinewidth
0 1 1 edgecolor
newpath 580.3961 382.878 moveto
583.6296 359.8107 590.8979 292.1977 574.1458 240 curveto
570.7744 229.4951 564.1779 219.1534 558.027 211.0381 curveto
stroke
0 1 1 edgecolor
newpath 560.7065 208.7853 moveto
551.7012 203.2036 lineto
555.2602 213.1828 lineto
closepath fill
1 setlinewidth
solid
0 1 1 edgecolor
newpath 560.7065 208.7853 moveto
551.7012 203.2036 lineto
555.2602 213.1828 lineto
closepath stroke
grestore
% 139781154519808->139781034973072
gsave
1 setlinewidth
0 1 1 edgecolor
newpath 583.7147 382.8127 moveto
604.3972 344.6026 684.6206 183.032 599.1458 120.2721 curveto
548.4335 83.0365 359.0657 78.6816 274.9044 78.6419 curveto
stroke
0 1 1 edgecolor
newpath 274.6965 75.1421 moveto
264.7021 78.6582 lineto
274.7078 82.1421 lineto
closepath fill
1 setlinewidth
solid
0 1 1 edgecolor
newpath 274.6965 75.1421 moveto
264.7021 78.6582 lineto
274.7078 82.1421 lineto
closepath stroke
grestore
% 139781154519808->139781131267872
gsave
1 setlinewidth
0 1 1 edgecolor
newpath 585.0325 382.8539 moveto
590.2655 375.359 597.8812 363.8017 603.1458 353 curveto
635.1349 287.3657 648.1458 268.0148 648.1458 195 curveto
648.1458 195 648.1458 195 648.1458 132 curveto
648.1458 97.0545 624.2096 88.5505 579.1458 69 curveto
507.5421 37.9354 418.8848 27.5168 354.3991 24.3817 curveto
stroke
0 1 1 edgecolor
newpath 354.4066 20.8788 moveto
344.2633 23.939 lineto
354.1011 27.8721 lineto
closepath fill
1 setlinewidth
solid
0 1 1 edgecolor
newpath 354.4066 20.8788 moveto
344.2633 23.939 lineto
354.1011 27.8721 lineto
closepath stroke
grestore
% 139781154519808->139781034971840
gsave
1 setlinewidth
0 1 1 edgecolor
newpath 573.8216 382.9454 moveto
565.0751 370.431 546.3969 346.5579 524.1458 335 curveto
483.747 314.0155 434.4459 304.1353 391.8649 299.6526 curveto
stroke
0 1 1 edgecolor
newpath 392.052 296.1544 moveto
381.7616 298.6755 lineto
391.3782 303.1219 lineto
closepath fill
1 setlinewidth
solid
0 1 1 edgecolor
newpath 392.052 296.1544 moveto
381.7616 298.6755 lineto
391.3782 303.1219 lineto
closepath stroke
grestore
% 139781154520512->139781034971312
gsave
1 setlinewidth
0.78039 1 0.82745 edgecolor
newpath 465.1458 429.7463 moveto
465.1458 424.6717 465.1458 417.9545 465.1458 411.6524 curveto
stroke
0.78039 1 0.82745 edgecolor
newpath 468.6459 411.2013 moveto
465.1458 401.2014 lineto
461.6459 411.2014 lineto
closepath fill
1 setlinewidth
solid
0.78039 1 0.82745 edgecolor
newpath 468.6459 411.2013 moveto
465.1458 401.2014 lineto
461.6459 411.2014 lineto
closepath stroke
grestore
% 139781154520512->139781034971488
gsave
1 setlinewidth
0.78039 1 0.82745 edgecolor
newpath 442.545 429.9636 moveto
429.6788 424.0871 414.6674 414.72 407.1458 401 curveto
397.802 383.9562 416.0293 368.3776 433.7816 358.0032 curveto
stroke
0.78039 1 0.82745 edgecolor
newpath 435.7514 360.9165 moveto
442.873 353.0722 lineto
432.414 354.7633 lineto
closepath fill
1 setlinewidth
solid
0.78039 1 0.82745 edgecolor
newpath 435.7514 360.9165 moveto
442.873 353.0722 lineto
432.414 354.7633 lineto
closepath stroke
grestore
% 139781154520512->139781034972896
gsave
1 setlinewidth
0.78039 1 0.82745 edgecolor
newpath 511.8458 434.2341 moveto
556.4423 429.5537 619.0343 419.7779 634.1458 401 curveto
640.8179 392.7092 625.6651 197.9186 614.1458 181.2721 curveto
602.2098 164.0233 582.04 152.7064 563.5291 145.4843 curveto
stroke
0.78039 1 0.82745 edgecolor
newpath 564.647 142.1669 moveto
554.0526 142.0711 lineto
562.275 148.7527 lineto
closepath fill
1 setlinewidth
solid
0.78039 1 0.82745 edgecolor
newpath 564.647 142.1669 moveto
554.0526 142.0711 lineto
562.275 148.7527 lineto
closepath stroke
grestore
% 139781154520512->139781034972368
gsave
1 setlinewidth
0.78039 1 0.82745 edgecolor
newpath 511.8472 434.0232 moveto
555.6028 429.2143 616.4174 419.3727 631.1458 401 curveto
644.8693 383.881 656.2723 385.9104 577.1458 240 curveto
571.6514 229.8682 564.1368 219.4348 557.6663 211.1683 curveto
stroke
0.78039 1 0.82745 edgecolor
newpath 560.2073 208.744 moveto
551.2 203.1656 lineto
554.7625 213.1435 lineto
closepath fill
1 setlinewidth
solid
0.78039 1 0.82745 edgecolor
newpath 560.2073 208.744 moveto
551.2 203.1656 lineto
554.7625 213.1435 lineto
closepath stroke
grestore
% 139781154520512->139781034973072
gsave
1 setlinewidth
0.78039 1 0.82745 edgecolor
newpath 511.7003 434.3178 moveto
556.5842 429.6865 619.89 419.9334 635.1458 401 curveto
653.5504 378.1589 635.2412 364.3332 635.1458 335 curveto
634.9896 286.9858 649.0876 149.6967 611.1458 120.2721 curveto
559.5136 80.2302 361.3405 77.4687 274.8813 78.2497 curveto
stroke
0.78039 1 0.82745 edgecolor
newpath 274.6251 74.7522 moveto
264.6647 78.3634 lineto
274.7031 81.7518 lineto
closepath fill
1 setlinewidth
solid
0.78039 1 0.82745 edgecolor
newpath 274.6251 74.7522 moveto
264.6647 78.3634 lineto
274.7031 81.7518 lineto
closepath stroke
grestore
% 139781154520512->139781131267872
gsave
1 setlinewidth
0.78039 1 0.82745 edgecolor
newpath 511.987 434.4273 moveto
558.0556 429.8505 623.7902 420.1099 640.1458 401 curveto
655.0501 383.5858 651.1458 217.9215 651.1458 195 curveto
651.1458 195 651.1458 195 651.1458 132 curveto
651.1458 104.6744 635.161 87.8315 599.1458 69 curveto
556.8583 46.8888 432.3921 34.6354 348.4618 28.6866 curveto
stroke
0.78039 1 0.82745 edgecolor
newpath 348.6536 25.1915 moveto
338.4356 27.9921 lineto
348.1699 32.1748 lineto
closepath fill
1 setlinewidth
solid
0.78039 1 0.82745 edgecolor
newpath 348.6536 25.1915 moveto
338.4356 27.9921 lineto
348.1699 32.1748 lineto
closepath stroke
grestore
% 139781154520512->139781034971840
gsave
1 setlinewidth
0.78039 1 0.82745 edgecolor
newpath 448.6289 429.9106 moveto
435.7655 423.172 417.8523 412.7964 404.1458 401 curveto
396.2528 394.2069 396.357 390.5129 389.1458 383 curveto
363.6483 356.4357 331.4116 328.2734 311.8071 311.6828 curveto
stroke
0.78039 1 0.82745 edgecolor
newpath 313.9043 308.8734 moveto
303.9965 305.1203 lineto
309.4014 314.2329 lineto
closepath fill
1 setlinewidth
solid
0.78039 1 0.82745 edgecolor
newpath 313.9043 308.8734 moveto
303.9965 305.1203 lineto
309.4014 314.2329 lineto
closepath stroke
grestore
% 139781034971488->139781034972896
gsave
1 setlinewidth
0 0 0.41176 edgecolor
newpath 475.5253 334.7404 moveto
505.8703 316.3642 575.8208 268.7806 602.1458 206.7279 curveto
606.5643 196.3127 607.7797 191.0832 602.1458 181.2721 curveto
592.6569 164.7476 574.9156 153.4522 558.4502 146.0583 curveto
stroke
0 0 0.41176 edgecolor
newpath 559.554 142.7275 moveto
548.9752 142.1457 lineto
556.8823 149.1976 lineto
closepath fill
1 setlinewidth
solid
0 0 0.41176 edgecolor
newpath 559.554 142.7275 moveto
548.9752 142.1457 lineto
556.8823 149.1976 lineto
closepath stroke
grestore
% 139781034971488->139781034972368
gsave
1 setlinewidth
0 0 0.41176 edgecolor
newpath 465.8461 334.6188 moveto
479.0283 311.1131 516.5517 244.2039 534.4363 212.3134 curveto
stroke
0 0 0.41176 edgecolor
newpath 537.6584 213.7233 moveto
539.4971 203.2893 lineto
531.5529 210.2993 lineto
closepath fill
1 setlinewidth
solid
0 0 0.41176 edgecolor
newpath 537.6584 213.7233 moveto
539.4971 203.2893 lineto
531.5529 210.2993 lineto
closepath stroke
grestore
% 139781034971488->139781034973072
gsave
1 setlinewidth
0 0 0.41176 edgecolor
newpath 479.0211 334.9551 moveto
493.4866 328.0327 514.0303 317.2453 530.1458 305 curveto
575.6658 270.4117 595.5667 261.1283 613.1458 206.7279 curveto
626.4031 165.7019 606.2527 142.2258 569.1458 120.2721 curveto
520.2551 91.3466 353.2714 82.5618 275.1119 80.0016 curveto
stroke
0 0 0.41176 edgecolor
newpath 274.7975 76.4903 moveto
264.6943 79.6802 lineto
274.5816 83.487 lineto
closepath fill
1 setlinewidth
solid
0 0 0.41176 edgecolor
newpath 274.7975 76.4903 moveto
264.6943 79.6802 lineto
274.5816 83.487 lineto
closepath stroke
grestore
% 139781034971488->139781131267872
gsave
1 setlinewidth
0 0 0.41176 edgecolor
newpath 483.2675 334.9853 moveto
513.158 322.9873 565.9402 297.4592 594.1458 258 curveto
612.5095 232.3094 647.5645 145.9233 629.1458 120.2721 curveto
595.3853 73.2547 433.5374 45.0751 338.0617 32.2694 curveto
stroke
0 0 0.41176 edgecolor
newpath 338.2703 28.7668 moveto
327.8988 30.9307 lineto
337.356 35.7068 lineto
closepath fill
1 setlinewidth
solid
0 0 0.41176 edgecolor
newpath 338.2703 28.7668 moveto
327.8988 30.9307 lineto
337.356 35.7068 lineto
closepath stroke
grestore
% 139781034971488->139781034971840
gsave
1 setlinewidth
0 0 0.41176 edgecolor
newpath 432.0566 334.9874 moveto
404.6859 327.4482 363.4997 316.1035 333.2613 307.7743 curveto
stroke
0 0 0.41176 edgecolor
newpath 334.0324 304.3564 moveto
323.462 305.0751 lineto
332.1734 311.1051 lineto
closepath fill
1 setlinewidth
solid
0 0 0.41176 edgecolor
newpath 334.0324 304.3564 moveto
323.462 305.0751 lineto
332.1734 311.1051 lineto
closepath stroke
grestore
% 139781034972896->139781034973072
gsave
1 setlinewidth
0.78039 1 0.82745 edgecolor
newpath 477.5567 123.9504 moveto
422.4602 113.7758 328.3539 96.3973 274.7245 86.4936 curveto
stroke
0.78039 1 0.82745 edgecolor
newpath 275.3505 83.0501 moveto
264.8811 84.6759 lineto
274.0792 89.9337 lineto
closepath fill
1 setlinewidth
solid
0.78039 1 0.82745 edgecolor
newpath 275.3505 83.0501 moveto
264.8811 84.6759 lineto
274.0792 89.9337 lineto
closepath stroke
grestore
% 139781034972896->139781131267872
gsave
1 setlinewidth
0.78039 1 0.82745 edgecolor
newpath 516.5279 123.9856 moveto
508.2621 110.4037 489.5894 82.9809 466.1458 69 curveto
429.9812 47.4328 384.4926 36.1921 346.1378 30.3381 curveto
stroke
0.78039 1 0.82745 edgecolor
newpath 346.4328 26.8447 moveto
336.0381 28.8942 lineto
345.4421 33.7743 lineto
closepath fill
1 setlinewidth
solid
0.78039 1 0.82745 edgecolor
newpath 346.4328 26.8447 moveto
336.0381 28.8942 lineto
345.4421 33.7743 lineto
closepath stroke
grestore
% 139781034972368->139781034972896
gsave
1 setlinewidth
0.33333 0.23922 0.73725 edgecolor
newpath 540.9478 184.7963 moveto
537.6178 176.2542 532.2992 162.6109 528.0122 151.6138 curveto
stroke
0.33333 0.23922 0.73725 edgecolor
newpath 531.2098 150.1799 moveto
524.3167 142.134 lineto
524.6879 152.7224 lineto
closepath fill
1 setlinewidth
solid
0.33333 0.23922 0.73725 edgecolor
newpath 531.2098 150.1799 moveto
524.3167 142.134 lineto
524.6879 152.7224 lineto
closepath stroke
grestore
% 139781034972368->139781034973072
gsave
1 setlinewidth
0.33333 0.23922 0.73725 edgecolor
newpath 526.7903 184.9619 moveto
509.7811 176.5951 483.6423 162.3965 464.1458 145.7279 curveto
452.998 136.1971 455.7406 127.7875 443.1458 120.2721 curveto
390.8075 89.0415 319.2492 80.9162 274.9019 79.0907 curveto
stroke
0.33333 0.23922 0.73725 edgecolor
newpath 274.8923 75.5887 moveto
264.7847 78.7645 lineto
274.6667 82.585 lineto
closepath fill
1 setlinewidth
solid
0.33333 0.23922 0.73725 edgecolor
newpath 274.8923 75.5887 moveto
264.7847 78.7645 lineto
274.6667 82.585 lineto
closepath stroke
grestore
% 139781034972368->139781131267872
gsave
1 setlinewidth
0.33333 0.23922 0.73725 edgecolor
newpath 528.9366 184.9183 moveto
513.779 176.4167 490.3442 162.0254 473.1458 145.7279 curveto
462.8983 136.0172 464.9206 129.3941 454.1458 120.2721 curveto
409.4765 82.4546 347.4364 54.2529 307.2886 38.451 curveto
stroke
0.33333 0.23922 0.73725 edgecolor
newpath 308.4157 35.1343 moveto
297.8262 34.7967 lineto
305.8938 41.6643 lineto
closepath fill
1 setlinewidth
solid
0.33333 0.23922 0.73725 edgecolor
newpath 308.4157 35.1343 moveto
297.8262 34.7967 lineto
305.8938 41.6643 lineto
closepath stroke
grestore
% 139781034973072->139781131267872
gsave
1 setlinewidth
0.78039 1 0.82745 edgecolor
newpath 239.3021 68.7188 moveto
243.349 62.2191 249.1606 52.8854 254.4285 44.4248 curveto
stroke
0.78039 1 0.82745 edgecolor
newpath 257.5076 46.1014 moveto
259.822 35.7624 lineto
251.5653 42.4014 lineto
closepath fill
1 setlinewidth
solid
0.78039 1 0.82745 edgecolor
newpath 257.5076 46.1014 moveto
259.822 35.7624 lineto
251.5653 42.4014 lineto
closepath stroke
grestore
% 139781034971840->139781034972896
gsave
1 setlinewidth
0.83137 1 1 edgecolor
newpath 299.9233 286.9203 moveto
309.0024 274.8338 327.7929 252.1686 349.1458 240 curveto
400.9624 210.4707 434.4467 246.2113 479.1458 206.7279 curveto
488.256 198.6807 483.4821 192.0274 489.1458 181.2721 curveto
494.835 170.4684 502.4598 159.1147 508.8395 150.2426 curveto
stroke
0.83137 1 1 edgecolor
newpath 511.7836 152.1474 moveto
514.9037 142.0224 lineto
506.1506 147.9918 lineto
closepath fill
1 setlinewidth
solid
0.83137 1 1 edgecolor
newpath 511.7836 152.1474 moveto
514.9037 142.0224 lineto
506.1506 147.9918 lineto
closepath stroke
grestore
% 139781034971840->139781034972368
gsave
1 setlinewidth
0.83137 1 1 edgecolor
newpath 305.1028 286.8058 moveto
321.3656 274.9833 353.2006 253.1235 383.1458 240 curveto
418.6452 224.4423 460.9209 212.8704 493.2423 205.3595 curveto
stroke
0.83137 1 1 edgecolor
newpath 494.387 208.6888 moveto
503.3652 203.0637 lineto
492.8387 201.8622 lineto
closepath fill
1 setlinewidth
solid
0.83137 1 1 edgecolor
newpath 494.387 208.6888 moveto
503.3652 203.0637 lineto
492.8387 201.8622 lineto
closepath stroke
grestore
% 139781034971840->139781034973072
gsave
1 setlinewidth
0.83137 1 1 edgecolor
newpath 206.4246 287.1552 moveto
153.1609 277.3482 89.0909 255.4516 55.1458 206.7279 curveto
14.2336 148.0039 129.2351 106.7908 193.7369 88.934 curveto
stroke
0.83137 1 1 edgecolor
newpath 194.8791 92.2511 moveto
203.6239 86.2695 lineto
193.0576 85.4923 lineto
closepath fill
1 setlinewidth
solid
0.83137 1 1 edgecolor
newpath 194.8791 92.2511 moveto
203.6239 86.2695 lineto
193.0576 85.4923 lineto
closepath stroke
grestore
% 139781034971840->139781131267872
gsave
1 setlinewidth
0.83137 1 1 edgecolor
newpath 206.464 292.2973 moveto
168.6049 287.9024 125.0845 278.2919 90.1458 258 curveto
64.428 243.0634 57.3141 234.6763 47.1458 206.7279 curveto
15.3683 119.3851 147.6982 62.0734 221.1258 37.5756 curveto
stroke
0.83137 1 1 edgecolor
newpath 222.6476 40.761 moveto
231.0727 34.3369 lineto
220.4804 34.1049 lineto
closepath fill
1 setlinewidth
solid
0.83137 1 1 edgecolor
newpath 222.6476 40.761 moveto
231.0727 34.3369 lineto
220.4804 34.1049 lineto
closepath stroke
grestore
% 139781034972016
gsave
1 setlinewidth
0 0 0 nodecolor
newpath 309.6458 258 moveto
220.6458 258 lineto
220.6458 240 lineto
309.6458 240 lineto
closepath stroke
0 0 0 nodecolor
9 /Helvetica set_font
228.6458 246.8 moveto 73 (mes-boot@0.22) alignedtext
grestore
% 139781034971840->139781034972016
gsave
1 setlinewidth
0.83137 1 1 edgecolor
newpath 288.8268 286.7463 moveto
285.2294 281.1642 280.3513 273.5947 275.9572 266.7763 curveto
stroke
0.83137 1 1 edgecolor
newpath 278.7902 264.7111 moveto
270.4311 258.2014 lineto
272.9062 268.5031 lineto
closepath fill
1 setlinewidth
solid
0.83137 1 1 edgecolor
newpath 278.7902 264.7111 moveto
270.4311 258.2014 lineto
272.9062 268.5031 lineto
closepath stroke
grestore
% 139781131266816
gsave
1 setlinewidth
0 0 0 nodecolor
157.1458 194 105.218 12.96 ellipse_path stroke
0 0 0 nodecolor
9 /Helvetica set_font
90.6458 191.8 moveto 133 (bootstrap-mescc-tools@0.5.2) alignedtext
grestore
% 139781034971840->139781131266816
gsave
1 setlinewidth
0.83137 1 1 edgecolor
newpath 273.6822 286.8952 moveto
258.2419 280.2892 236.9252 270.0939 220.1458 258 curveto
202.688 245.4172 185.5986 227.904 173.6332 214.5357 curveto
stroke
0.83137 1 1 edgecolor
newpath 176.1076 212.0485 moveto
166.8878 206.8287 lineto
170.8402 216.6588 lineto
closepath fill
1 setlinewidth
solid
0.83137 1 1 edgecolor
newpath 176.1076 212.0485 moveto
166.8878 206.8287 lineto
170.8402 216.6588 lineto
closepath stroke
grestore
% 139781034972016->139781034972896
gsave
1 setlinewidth
0.49804 1 0.80392 edgecolor
newpath 309.6917 240.4087 moveto
369.6884 230.0221 469.7482 212.0602 476.1458 206.7279 curveto
485.4832 198.9455 480.2562 191.9053 486.1458 181.2721 curveto
492.2316 170.2846 500.5491 158.9427 507.5488 150.1233 curveto
stroke
0.49804 1 0.80392 edgecolor
newpath 510.3631 152.2105 moveto
513.9779 142.2514 lineto
504.9415 147.7826 lineto
closepath fill
1 setlinewidth
solid
0.49804 1 0.80392 edgecolor
newpath 510.3631 152.2105 moveto
513.9779 142.2514 lineto
504.9415 147.7826 lineto
closepath stroke
grestore
% 139781034972016->139781034972368
gsave
1 setlinewidth
0.49804 1 0.80392 edgecolor
newpath 307.5199 239.9504 moveto
356.9275 230.5648 438.6045 215.0491 491.8969 204.9254 curveto
stroke
0.49804 1 0.80392 edgecolor
newpath 492.6599 208.3432 moveto
501.8309 203.0383 lineto
491.3534 201.4661 lineto
closepath fill
1 setlinewidth
solid
0.49804 1 0.80392 edgecolor
newpath 492.6599 208.3432 moveto
501.8309 203.0383 lineto
491.3534 201.4661 lineto
closepath stroke
grestore
% 139781034972016->139781034973072
gsave
1 setlinewidth
0.49804 1 0.80392 edgecolor
newpath 264.8017 239.7313 moveto
264.1851 227.0713 262.6169 202.1548 259.1458 181.2721 curveto
254.1642 151.3012 245.1121 117.1342 239.3756 96.8551 curveto
stroke
0.49804 1 0.80392 edgecolor
newpath 242.7066 95.7741 moveto
236.5766 87.1327 lineto
235.9798 97.7107 lineto
closepath fill
1 setlinewidth
solid
0.49804 1 0.80392 edgecolor
newpath 242.7066 95.7741 moveto
236.5766 87.1327 lineto
235.9798 97.7107 lineto
closepath stroke
grestore
% 139781034972016->139781131267872
gsave
1 setlinewidth
0.49804 1 0.80392 edgecolor
newpath 265.2194 239.7621 moveto
265.5012 208.2013 266.5178 94.3419 266.9496 45.9774 curveto
stroke
0.49804 1 0.80392 edgecolor
newpath 270.4497 45.9684 moveto
267.0392 35.9375 lineto
263.45 45.9058 lineto
closepath fill
1 setlinewidth
solid
0.49804 1 0.80392 edgecolor
newpath 270.4497 45.9684 moveto
267.0392 35.9375 lineto
263.45 45.9058 lineto
closepath stroke
grestore
% 139781034972016->139781131266816
gsave
1 setlinewidth
0.49804 1 0.80392 edgecolor
newpath 248.7429 239.9504 moveto
233.124 232.2856 209.1742 220.5324 189.6813 210.9665 curveto
stroke
0.49804 1 0.80392 edgecolor
newpath 191.0454 207.7372 moveto
180.5262 206.4737 lineto
187.9615 214.0213 lineto
closepath fill
1 setlinewidth
solid
0.49804 1 0.80392 edgecolor
newpath 191.0454 207.7372 moveto
180.5262 206.4737 lineto
187.9615 214.0213 lineto
closepath stroke
grestore
% 139781034972192
gsave
1 setlinewidth
0 0 0 nodecolor
374.1458 194 105.218 12.96 ellipse_path stroke
0 0 0 nodecolor
9 /Helvetica set_font
307.6458 191.8 moveto 133 (bootstrap-mes-rewired@0.19) alignedtext
grestore
% 139781034972016->139781034972192
gsave
1 setlinewidth
0.49804 1 0.80392 edgecolor
newpath 281.7006 239.9504 moveto
297.4642 232.2856 321.6357 220.5324 341.3091 210.9665 curveto
stroke
0.49804 1 0.80392 edgecolor
newpath 343.0863 213.9942 moveto
350.549 206.4737 lineto
340.0252 207.699 lineto
closepath fill
1 setlinewidth
solid
0.49804 1 0.80392 edgecolor
newpath 343.0863 213.9942 moveto
350.549 206.4737 lineto
340.0252 207.699 lineto
closepath stroke
grestore
% 139781034972192->139781034972896
gsave
1 setlinewidth
0.33333 0.23922 0.73725 edgecolor
newpath 402.4889 181.6242 moveto
428.0858 171.3506 465.6126 156.2889 491.5806 145.8663 curveto
stroke
0.33333 0.23922 0.73725 edgecolor
newpath 492.9415 149.0916 moveto
500.9182 142.1186 lineto
490.3341 142.5953 lineto
closepath fill
1 setlinewidth
solid
0.33333 0.23922 0.73725 edgecolor
newpath 492.9415 149.0916 moveto
500.9182 142.1186 lineto
490.3341 142.5953 lineto
closepath stroke
grestore
% 139781131266640
gsave
1 setlinewidth
0 0 0 nodecolor
374.1458 133 68.6788 12.96 ellipse_path stroke
0 0 0 nodecolor
9 /Helvetica set_font
333.6458 130.8 moveto 81 (bootstrap-mes@0) alignedtext
grestore
% 139781034972192->139781131266640
gsave
1 setlinewidth
0.33333 0.23922 0.73725 edgecolor
newpath 374.1458 181.0605 moveto
374.1458 173.8631 374.1458 164.4731 374.1458 155.9756 curveto
stroke
0.33333 0.23922 0.73725 edgecolor
newpath 377.6459 155.9217 moveto
374.1458 145.9218 lineto
370.6459 155.9218 lineto
closepath fill
1 setlinewidth
solid
0.33333 0.23922 0.73725 edgecolor
newpath 377.6459 155.9217 moveto
374.1458 145.9218 lineto
370.6459 155.9218 lineto
closepath stroke
grestore
endpage
showpage
grestore
%%PageTrailer
%%EndPage: 1
%%Trailer
end
restore
%%EOF
