%!PS-Adobe-3.0 EPSF-3.0
%%Creator: graphviz version 2.42.3 (20191010.1750)
%%Title: Service Type Dependencies
%%Pages: 1
%%BoundingBox: 36 36 561 510
%%EndComments
save
%%BeginProlog
/DotDict 200 dict def
DotDict begin

/setupLatin1 {
mark
/EncodingVector 256 array def
 EncodingVector 0

ISOLatin1Encoding 0 255 getinterval putinterval
EncodingVector 45 /hyphen put

% Set up ISO Latin 1 character encoding
/starnetISO {
        dup dup findfont dup length dict begin
        { 1 index /FID ne { def }{ pop pop } ifelse
        } forall
        /Encoding EncodingVector def
        currentdict end definefont
} def
/Times-Roman starnetISO def
/Times-Italic starnetISO def
/Times-Bold starnetISO def
/Times-BoldItalic starnetISO def
/Helvetica starnetISO def
/Helvetica-Oblique starnetISO def
/Helvetica-Bold starnetISO def
/Helvetica-BoldOblique starnetISO def
/Courier starnetISO def
/Courier-Oblique starnetISO def
/Courier-Bold starnetISO def
/Courier-BoldOblique starnetISO def
cleartomark
} bind def

%%BeginResource: procset graphviz 0 0
/coord-font-family /Times-Roman def
/default-font-family /Times-Roman def
/coordfont coord-font-family findfont 8 scalefont def

/InvScaleFactor 1.0 def
/set_scale {
       dup 1 exch div /InvScaleFactor exch def
       scale
} bind def

% styles
/solid { [] 0 setdash } bind def
/dashed { [9 InvScaleFactor mul dup ] 0 setdash } bind def
/dotted { [1 InvScaleFactor mul 6 InvScaleFactor mul] 0 setdash } bind def
/invis {/fill {newpath} def /stroke {newpath} def /show {pop newpath} def} bind def
/bold { 2 setlinewidth } bind def
/filled { } bind def
/unfilled { } bind def
/rounded { } bind def
/diagonals { } bind def
/tapered { } bind def

% hooks for setting color 
/nodecolor { sethsbcolor } bind def
/edgecolor { sethsbcolor } bind def
/graphcolor { sethsbcolor } bind def
/nopcolor {pop pop pop} bind def

/beginpage {	% i j npages
	/npages exch def
	/j exch def
	/i exch def
	/str 10 string def
	npages 1 gt {
		gsave
			coordfont setfont
			0 0 moveto
			(\() show i str cvs show (,) show j str cvs show (\)) show
		grestore
	} if
} bind def

/set_font {
	findfont exch
	scalefont setfont
} def

% draw text fitted to its expected width
/alignedtext {			% width text
	/text exch def
	/width exch def
	gsave
		width 0 gt {
			[] 0 setdash
			text stringwidth pop width exch sub text length div 0 text ashow
		} if
	grestore
} def

/boxprim {				% xcorner ycorner xsize ysize
		4 2 roll
		moveto
		2 copy
		exch 0 rlineto
		0 exch rlineto
		pop neg 0 rlineto
		closepath
} bind def

/ellipse_path {
	/ry exch def
	/rx exch def
	/y exch def
	/x exch def
	matrix currentmatrix
	newpath
	x y translate
	rx ry scale
	0 0 1 0 360 arc
	setmatrix
} bind def

/endpage { showpage } bind def
/showpage { } def

/layercolorseq
	[	% layer color sequence - darkest to lightest
		[0 0 0]
		[.2 .8 .8]
		[.4 .8 .8]
		[.6 .8 .8]
		[.8 .8 .8]
	]
def

/layerlen layercolorseq length def

/setlayer {/maxlayer exch def /curlayer exch def
	layercolorseq curlayer 1 sub layerlen mod get
	aload pop sethsbcolor
	/nodecolor {nopcolor} def
	/edgecolor {nopcolor} def
	/graphcolor {nopcolor} def
} bind def

/onlayer { curlayer ne {invis} if } def

/onlayers {
	/myupper exch def
	/mylower exch def
	curlayer mylower lt
	curlayer myupper gt
	or
	{invis} if
} def

/curlayer 0 def

%%EndResource
%%EndProlog
%%BeginSetup
14 default-font-family set_font
% /arrowlength 10 def
% /arrowwidth 5 def

% make sure pdfmark is harmless for PS-interpreters other than Distiller
/pdfmark where {pop} {userdict /pdfmark /cleartomark load put} ifelse
% make '<<' and '>>' safe on PS Level 1 devices
/languagelevel where {pop languagelevel}{1} ifelse
2 lt {
    userdict (<<) cvn ([) cvn load put
    userdict (>>) cvn ([) cvn load put
} if

%%EndSetup
setupLatin1
%%Page: 1 1
%%PageBoundingBox: 36 36 561 510
%%PageOrientation: Portrait
0 0 1 beginpage
gsave
36 36 525 474 boxprim clip newpath
1 1 set_scale 0 rotate 40 40 translate
% shepherd
gsave
1 setlinewidth
0 0 0 nodecolor
newpath 192.3276 212 moveto
133.3276 212 lineto
133.3276 194 lineto
192.3276 194 lineto
closepath stroke
0 0 0 nodecolor
9 /Helvetica set_font
141.3276 200.8 moveto 43 (shepherd) alignedtext
grestore
% boot
gsave
1 setlinewidth
0 0 0 nodecolor
newpath 103.3276 101 moveto
66.3276 101 lineto
66.3276 83 lineto
103.3276 83 lineto
closepath stroke
0 0 0 nodecolor
9 /Helvetica set_font
74.3276 89.8 moveto 21 (boot) alignedtext
grestore
% shepherd->boot
gsave
1 setlinewidth
0 0 0 edgecolor
newpath 156.9649 193.8073 moveto
144.2037 175.9743 113.6965 133.3425 96.7272 109.6289 curveto
stroke
0 0 0 edgecolor
newpath 99.4241 107.3833 moveto
90.7583 101.2878 lineto
93.7314 111.4569 lineto
closepath fill
1 setlinewidth
solid
0 0 0 edgecolor
newpath 99.4241 107.3833 moveto
90.7583 101.2878 lineto
93.7314 111.4569 lineto
closepath stroke
grestore
% pam
gsave
1 setlinewidth
0 0 0 nodecolor
newpath 67.3276 297 moveto
30.3276 297 lineto
30.3276 279 lineto
67.3276 279 lineto
closepath stroke
0 0 0 nodecolor
9 /Helvetica set_font
38.3276 285.8 moveto 21 (pam) alignedtext
grestore
% etc
gsave
1 setlinewidth
0 0 0 nodecolor
newpath 70.3276 212 moveto
39.3276 212 lineto
39.3276 194 lineto
70.3276 194 lineto
closepath stroke
0 0 0 nodecolor
9 /Helvetica set_font
47.3276 200.8 moveto 15 (etc) alignedtext
grestore
% pam->etc
gsave
1 setlinewidth
0 0 0 edgecolor
newpath 49.4248 278.7382 moveto
50.3682 265.6875 52.2266 239.9807 53.4977 222.3963 curveto
stroke
0 0 0 edgecolor
newpath 57.0025 222.4547 moveto
54.2327 212.2284 lineto
50.0208 221.95 lineto
closepath fill
1 setlinewidth
solid
0 0 0 edgecolor
newpath 57.0025 222.4547 moveto
54.2327 212.2284 lineto
50.0208 221.95 lineto
closepath stroke
grestore
% activation
gsave
1 setlinewidth
0 0 0 nodecolor
newpath 95.3276 157 moveto
34.3276 157 lineto
34.3276 139 lineto
95.3276 139 lineto
closepath stroke
0 0 0 nodecolor
9 /Helvetica set_font
42.3276 145.8 moveto 45 (activation) alignedtext
grestore
% etc->activation
gsave
1 setlinewidth
0 0 0 edgecolor
newpath 56.3901 193.7188 moveto
57.7335 186.5986 59.7186 176.0775 61.4259 167.0289 curveto
stroke
0 0 0 edgecolor
newpath 64.8939 167.5251 moveto
63.3088 157.0496 lineto
58.0153 166.2272 lineto
closepath fill
1 setlinewidth
solid
0 0 0 edgecolor
newpath 64.8939 167.5251 moveto
63.3088 157.0496 lineto
58.0153 166.2272 lineto
closepath stroke
grestore
% system
gsave
1 setlinewidth
0 0 0 nodecolor
newpath 85.4834 29.9346 moveto
42.8276 40.9686 lineto
.1717 29.9346 lineto
.2116 12.0811 lineto
85.4436 12.0811 lineto
closepath stroke
0 0 0 nodecolor
9 /Helvetica set_font
26.3276 22.8 moveto 33 (system) alignedtext
grestore
% etc->system
gsave
1 setlinewidth
0 0 0 edgecolor
newpath 50.0312 193.7518 moveto
39.4518 174.5747 15.6064 125.3906 22.8276 83 curveto
24.7824 71.5244 28.8021 59.2841 32.7285 49.0997 curveto
stroke
0 0 0 edgecolor
newpath 36.0239 50.2871 moveto
36.5439 39.705 lineto
29.5383 47.6531 lineto
closepath fill
1 setlinewidth
solid
0 0 0 edgecolor
newpath 36.0239 50.2871 moveto
36.5439 39.705 lineto
29.5383 47.6531 lineto
closepath stroke
grestore
% profile
gsave
1 setlinewidth
0 0 0 nodecolor
newpath 65.3276 101 moveto
20.3276 101 lineto
20.3276 83 lineto
65.3276 83 lineto
closepath stroke
0 0 0 nodecolor
9 /Helvetica set_font
28.3276 89.8 moveto 29 (profile) alignedtext
grestore
% profile->system
gsave
1 setlinewidth
0 0 0 edgecolor
newpath 42.8276 82.7677 moveto
42.8276 74.7942 42.8276 62.2931 42.8276 51.0495 curveto
stroke
0 0 0 edgecolor
newpath 46.3277 50.8435 moveto
42.8276 40.8436 lineto
39.3277 50.8436 lineto
closepath fill
1 setlinewidth
solid
0 0 0 edgecolor
newpath 46.3277 50.8435 moveto
42.8276 40.8436 lineto
39.3277 50.8436 lineto
closepath stroke
grestore
% accounts
gsave
1 setlinewidth
0 0 0 nodecolor
newpath 126.8276 297 moveto
68.8276 297 lineto
68.8276 279 lineto
126.8276 279 lineto
closepath stroke
0 0 0 nodecolor
9 /Helvetica set_font
76.8276 285.8 moveto 42 (accounts) alignedtext
grestore
% accounts->etc
gsave
1 setlinewidth
0 0 0 edgecolor
newpath 93.5474 278.7382 moveto
86.6574 265.4389 72.9585 238.9968 63.8423 221.4005 curveto
stroke
0 0 0 edgecolor
newpath 66.7983 219.4975 moveto
59.0905 212.2284 lineto
60.5829 222.7176 lineto
closepath fill
1 setlinewidth
solid
0 0 0 edgecolor
newpath 66.7983 219.4975 moveto
59.0905 212.2284 lineto
60.5829 222.7176 lineto
closepath stroke
grestore
% accounts->activation
gsave
1 setlinewidth
0 0 0 edgecolor
newpath 95.8621 278.7807 moveto
90.6453 256.9651 76.3557 197.2085 69.1308 166.9955 curveto
stroke
0 0 0 edgecolor
newpath 72.4712 165.9151 moveto
66.7414 157.0033 lineto
65.6632 167.5431 lineto
closepath fill
1 setlinewidth
solid
0 0 0 edgecolor
newpath 72.4712 165.9151 moveto
66.7414 157.0033 lineto
65.6632 167.5431 lineto
closepath stroke
grestore
% activation->boot
gsave
1 setlinewidth
0 0 0 edgecolor
newpath 67.9526 138.5625 moveto
70.6985 131.1486 74.7848 120.1155 78.2485 110.7634 curveto
stroke
0 0 0 edgecolor
newpath 81.5989 111.7946 moveto
81.79 101.2014 lineto
75.0347 109.3633 lineto
closepath fill
1 setlinewidth
solid
0 0 0 edgecolor
newpath 81.5989 111.7946 moveto
81.79 101.2014 lineto
75.0347 109.3633 lineto
closepath stroke
grestore
% boot->system
gsave
1 setlinewidth
0 0 0 edgecolor
newpath 79.5082 82.7677 moveto
73.8091 73.9477 64.5303 59.5875 56.7313 47.5176 curveto
stroke
0 0 0 edgecolor
newpath 59.5064 45.3634 moveto
51.1395 38.8637 lineto
53.627 49.1625 lineto
closepath fill
1 setlinewidth
solid
0 0 0 edgecolor
newpath 59.5064 45.3634 moveto
51.1395 38.8637 lineto
53.627 49.1625 lineto
closepath stroke
grestore
% lshd
gsave
1 setlinewidth
0 0 0 nodecolor
109.8276 355 25.4118 12.96 ellipse_path stroke
0 0 0 nodecolor
9 /Times-Roman set_font
99.8276 352.8 moveto 20 (lshd) alignedtext
grestore
% lshd->shepherd
gsave
1 setlinewidth
0 0 0 edgecolor
newpath 118.3198 342.7599 moveto
122.5614 336.7161 127.4874 328.9841 130.8276 321.5 curveto
145.7857 287.9848 155.1718 245.8941 159.6647 222.2689 curveto
stroke
0 0 0 edgecolor
newpath 163.1368 222.7375 moveto
161.4802 212.2729 lineto
156.2494 221.4865 lineto
closepath fill
1 setlinewidth
solid
0 0 0 edgecolor
newpath 163.1368 222.7375 moveto
161.4802 212.2729 lineto
156.2494 221.4865 lineto
closepath stroke
grestore
% lshd->pam
gsave
1 setlinewidth
0 0 0 edgecolor
newpath 99.7547 343.2666 moveto
89.8567 332.7195 74.6468 316.5123 63.4247 304.5543 curveto
stroke
0 0 0 edgecolor
newpath 65.8022 301.9731 moveto
56.4069 297.0763 lineto
60.6979 306.7633 lineto
closepath fill
1 setlinewidth
solid
0 0 0 edgecolor
newpath 65.8022 301.9731 moveto
56.4069 297.0763 lineto
60.6979 306.7633 lineto
closepath stroke
grestore
% udev
gsave
1 setlinewidth
0 0 0 nodecolor
303.8276 288 27.6545 12.96 ellipse_path stroke
0 0 0 nodecolor
9 /Times-Roman set_font
292.3276 285.8 moveto 23 (udev) alignedtext
grestore
% udev->shepherd
gsave
1 setlinewidth
0 0 0 edgecolor
newpath 287.6531 277.4788 moveto
262.5671 262.7119 214.1962 234.2383 185.5931 217.401 curveto
stroke
0 0 0 edgecolor
newpath 187.1062 214.2303 moveto
176.7129 212.1736 lineto
183.5551 220.2628 lineto
closepath fill
1 setlinewidth
solid
0 0 0 edgecolor
newpath 187.1062 214.2303 moveto
176.7129 212.1736 lineto
183.5551 220.2628 lineto
closepath stroke
grestore
% nscd
gsave
1 setlinewidth
0 0 0 nodecolor
416.8276 288 26.7407 12.96 ellipse_path stroke
0 0 0 nodecolor
9 /Times-Roman set_font
405.8276 285.8 moveto 22 (nscd) alignedtext
grestore
% nscd->shepherd
gsave
1 setlinewidth
0 0 0 edgecolor
newpath 395.6086 280.0662 moveto
351.6998 265.7181 250.5268 232.6576 197.1824 215.2262 curveto
stroke
0 0 0 edgecolor
newpath 198.085 211.8391 moveto
187.4925 212.0598 lineto
195.9107 218.4928 lineto
closepath fill
1 setlinewidth
solid
0 0 0 edgecolor
newpath 198.085 211.8391 moveto
187.4925 212.0598 lineto
195.9107 218.4928 lineto
closepath stroke
0 0 0 edgecolor
14 /Times-Roman set_font
305.8276 239.3 moveto 57 (extends) alignedtext
grestore
% nss-mdns
gsave
1 setlinewidth
0 0 0 nodecolor
474.8276 355 41.9398 12.96 ellipse_path stroke
0 0 0 nodecolor
9 /Times-Roman set_font
453.3276 352.8 moveto 43 (nss-mdns) alignedtext
grestore
% nss-mdns->nscd
gsave
1 setlinewidth
0 0 0 edgecolor
newpath 464.4583 342.3793 moveto
455.8583 332.7413 443.4674 318.8549 433.4794 307.6615 curveto
stroke
0 0 0 edgecolor
newpath 435.9893 305.2174 moveto
426.7199 300.0862 lineto
430.7663 309.8779 lineto
closepath fill
1 setlinewidth
solid
0 0 0 edgecolor
newpath 435.9893 305.2174 moveto
426.7199 300.0862 lineto
430.7663 309.8779 lineto
closepath stroke
grestore
% kvm-rules
gsave
1 setlinewidth
0 0 0 nodecolor
387.8276 355 43.6818 12.96 ellipse_path stroke
0 0 0 nodecolor
9 /Times-Roman set_font
364.8276 352.8 moveto 46 (kvm-rules) alignedtext
grestore
% kvm-rules->udev
gsave
1 setlinewidth
0 0 0 edgecolor
newpath 373.1959 342.6779 moveto
359.9934 332.4616 340.4002 317.3003 325.4013 305.6939 curveto
stroke
0 0 0 edgecolor
newpath 327.2347 302.6872 moveto
317.184 299.3354 lineto
322.9508 308.2233 lineto
closepath fill
1 setlinewidth
solid
0 0 0 edgecolor
newpath 327.2347 302.6872 moveto
317.184 299.3354 lineto
322.9508 308.2233 lineto
closepath stroke
grestore
% colord
gsave
1 setlinewidth
0 0 0 nodecolor
233.8276 355 32.5538 12.96 ellipse_path stroke
0 0 0 nodecolor
9 /Times-Roman set_font
218.8276 352.8 moveto 30 (colord) alignedtext
grestore
% colord->accounts
gsave
1 setlinewidth
0 0 0 edgecolor
newpath 214.3421 344.6871 moveto
190.5313 333.3069 150.161 314.0123 123.7476 301.3882 curveto
stroke
0 0 0 edgecolor
newpath 125.2361 298.2205 moveto
114.7043 297.0661 lineto
122.2175 304.5362 lineto
closepath fill
1 setlinewidth
solid
0 0 0 edgecolor
newpath 125.2361 298.2205 moveto
114.7043 297.0661 lineto
122.2175 304.5362 lineto
closepath stroke
grestore
% colord->udev
gsave
1 setlinewidth
0 0 0 edgecolor
newpath 245.7021 342.9736 moveto
256.3253 333.1093 272.0931 318.4677 284.5268 306.9222 curveto
stroke
0 0 0 edgecolor
newpath 287.182 309.2329 moveto
292.1284 299.8635 lineto
282.4188 304.1033 lineto
closepath fill
1 setlinewidth
solid
0 0 0 edgecolor
newpath 287.182 309.2329 moveto
292.1284 299.8635 lineto
282.4188 304.1033 lineto
closepath stroke
grestore
% dbus
gsave
1 setlinewidth
0 0 0 nodecolor
198.8276 288 27.6545 12.96 ellipse_path stroke
0 0 0 nodecolor
9 /Times-Roman set_font
187.3276 285.8 moveto 23 (dbus) alignedtext
grestore
% colord->dbus
gsave
1 setlinewidth
0 0 0 edgecolor
newpath 227.5703 342.3793 moveto
222.643 333.2286 215.6535 320.2482 209.8009 309.379 curveto
stroke
0 0 0 edgecolor
newpath 212.8534 307.6654 moveto
205.0307 300.5201 lineto
206.6901 310.9842 lineto
closepath fill
1 setlinewidth
solid
0 0 0 edgecolor
newpath 212.8534 307.6654 moveto
205.0307 300.5201 lineto
206.6901 310.9842 lineto
closepath stroke
grestore
% dbus->shepherd
gsave
1 setlinewidth
0 0 0 edgecolor
newpath 193.8219 275.4592 moveto
187.7995 261.5742 177.6217 238.1086 170.5806 221.875 curveto
stroke
0 0 0 edgecolor
newpath 173.6719 220.2064 moveto
166.4817 212.4249 lineto
167.25 222.9918 lineto
closepath fill
1 setlinewidth
solid
0 0 0 edgecolor
newpath 173.6719 220.2064 moveto
166.4817 212.4249 lineto
167.25 222.9918 lineto
closepath stroke
grestore
% upower
gsave
1 setlinewidth
0 0 0 nodecolor
303.8276 355 36.125 12.96 ellipse_path stroke
0 0 0 nodecolor
9 /Times-Roman set_font
286.3276 352.8 moveto 35 (upower) alignedtext
grestore
% upower->udev
gsave
1 setlinewidth
0 0 0 edgecolor
newpath 303.8276 342.078 moveto
303.8276 333.3736 303.8276 321.3236 303.8276 310.9048 curveto
stroke
0 0 0 edgecolor
newpath 307.3277 310.8464 moveto
303.8276 300.8464 lineto
300.3277 310.8465 lineto
closepath fill
1 setlinewidth
solid
0 0 0 edgecolor
newpath 307.3277 310.8464 moveto
303.8276 300.8464 lineto
300.3277 310.8465 lineto
closepath stroke
grestore
% upower->dbus
gsave
1 setlinewidth
0 0 0 edgecolor
newpath 286.9575 343.5566 moveto
269.6419 332.8374 242.5354 316.0572 222.955 303.936 curveto
stroke
0 0 0 edgecolor
newpath 224.6321 300.8579 moveto
214.2872 298.5702 lineto
220.9476 306.8098 lineto
closepath fill
1 setlinewidth
solid
0 0 0 edgecolor
newpath 224.6321 300.8579 moveto
214.2872 298.5702 lineto
220.9476 306.8098 lineto
closepath stroke
grestore
% polkit
gsave
1 setlinewidth
0 0 0 nodecolor
166.8276 355 30.3115 12.96 ellipse_path stroke
0 0 0 nodecolor
9 /Times-Roman set_font
153.3276 352.8 moveto 27 (polkit) alignedtext
grestore
% polkit->pam
gsave
1 setlinewidth
0 0 0 edgecolor
newpath 149.4163 344.409 moveto
129.1098 333.2233 95.4302 314.671 72.6961 302.1479 curveto
stroke
0 0 0 edgecolor
newpath 74.1417 298.9484 moveto
63.6939 297.1891 lineto
70.7642 305.0797 lineto
closepath fill
1 setlinewidth
solid
0 0 0 edgecolor
newpath 74.1417 298.9484 moveto
63.6939 297.1891 lineto
70.7642 305.0797 lineto
closepath stroke
grestore
% polkit->dbus
gsave
1 setlinewidth
0 0 0 edgecolor
newpath 172.5485 342.3793 moveto
177.008 333.321 183.3149 320.51 188.6324 309.709 curveto
stroke
0 0 0 edgecolor
newpath 191.8793 311.0377 moveto
193.1561 300.5201 lineto
185.5991 307.9459 lineto
closepath fill
1 setlinewidth
solid
0 0 0 edgecolor
newpath 191.8793 311.0377 moveto
193.1561 300.5201 lineto
185.5991 307.9459 lineto
closepath stroke
grestore
% elogind
gsave
1 setlinewidth
0 0 0 nodecolor
166.8276 445 36.125 12.96 ellipse_path stroke
0 0 0 nodecolor
9 /Times-Roman set_font
149.3276 442.8 moveto 35 (elogind) alignedtext
grestore
% elogind->pam
gsave
1 setlinewidth
0 0 0 edgecolor
newpath 138.7152 436.9614 moveto
106.8159 427.3012 56.3095 406.5372 33.8276 367.7279 curveto
22.8536 348.7843 31.0358 323.3866 38.9721 306.6247 curveto
stroke
0 0 0 edgecolor
newpath 42.2363 307.931 moveto
43.7082 297.4389 lineto
36.0146 304.7231 lineto
closepath fill
1 setlinewidth
solid
0 0 0 edgecolor
newpath 42.2363 307.931 moveto
43.7082 297.4389 lineto
36.0146 304.7231 lineto
closepath stroke
grestore
% elogind->udev
gsave
1 setlinewidth
0 0 0 edgecolor
newpath 199.9594 439.8393 moveto
240.2442 432.8092 306.5911 414.434 336.8276 367.7279 curveto
349.1727 348.6585 334.9036 324.2004 321.4654 307.6431 curveto
stroke
0 0 0 edgecolor
newpath 323.8486 305.0482 moveto
314.6591 299.7752 lineto
318.5546 309.628 lineto
closepath fill
1 setlinewidth
solid
0 0 0 edgecolor
newpath 323.8486 305.0482 moveto
314.6591 299.7752 lineto
318.5546 309.628 lineto
closepath stroke
grestore
% elogind->dbus
gsave
1 setlinewidth
0 0 0 edgecolor
newpath 178.0851 432.5669 moveto
183.9276 425.8529 190.5199 416.8645 193.8276 407.5 curveto
205.1863 375.3413 203.9399 335.1905 201.6445 310.8515 curveto
stroke
0 0 0 edgecolor
newpath 205.1193 310.4293 moveto
200.5575 300.8668 lineto
198.1604 311.1869 lineto
closepath fill
1 setlinewidth
solid
0 0 0 edgecolor
newpath 205.1193 310.4293 moveto
200.5575 300.8668 lineto
198.1604 311.1869 lineto
closepath stroke
grestore
% elogind->polkit
gsave
1 setlinewidth
0 0 0 edgecolor
newpath 155.1453 432.5869 moveto
146.2263 422.4376 136.1909 407.0008 140.8276 392.5 curveto
142.7706 386.4234 146.1364 380.4947 149.8143 375.2426 curveto
stroke
0 0 0 edgecolor
newpath 152.7389 377.1827 moveto
156.1023 367.1359 lineto
147.2077 372.8924 lineto
closepath fill
1 setlinewidth
solid
0 0 0 edgecolor
newpath 152.7389 377.1827 moveto
156.1023 367.1359 lineto
147.2077 372.8924 lineto
closepath stroke
0 0 0 edgecolor
14 /Times-Roman set_font
140.8276 396.3 moveto 57 (extends) alignedtext
grestore
% guix
gsave
1 setlinewidth
0 0 0 nodecolor
56.8276 355 26.3269 12.96 ellipse_path stroke
0 0 0 nodecolor
9 /Times-Roman set_font
46.3276 352.8 moveto 21 (guix) alignedtext
grestore
% guix->shepherd
gsave
1 setlinewidth
0 0 0 edgecolor
newpath 72.8697 344.9105 moveto
88.0867 335.5685 110.6714 319.7296 124.8276 300.7279 curveto
134.4087 287.8672 149.0078 246.2231 157.0353 221.9734 curveto
stroke
0 0 0 edgecolor
newpath 160.4426 222.814 moveto
160.2195 212.2215 lineto
153.7883 220.6412 lineto
closepath fill
1 setlinewidth
solid
0 0 0 edgecolor
newpath 160.4426 222.814 moveto
160.2195 212.2215 lineto
153.7883 220.6412 lineto
closepath stroke
grestore
% guix->accounts
gsave
1 setlinewidth
0 0 0 edgecolor
newpath 63.9692 342.6779 moveto
70.3502 332.5616 79.7897 317.5967 87.0819 306.0359 curveto
stroke
0 0 0 edgecolor
newpath 90.2133 307.6319 moveto
92.588 297.3066 lineto
84.2927 303.8973 lineto
closepath fill
1 setlinewidth
solid
0 0 0 edgecolor
newpath 90.2133 307.6319 moveto
92.588 297.3066 lineto
84.2927 303.8973 lineto
closepath stroke
grestore
% guix->activation
gsave
1 setlinewidth
0 0 0 edgecolor
newpath 49.1517 342.7646 moveto
42.5555 332.3818 33.5386 316.2585 29.8276 300.7279 curveto
23.5208 274.3337 31.8142 215.3707 38.8276 194 curveto
42.1035 184.0179 47.7781 173.8069 52.9917 165.6402 curveto
stroke
0 0 0 edgecolor
newpath 56.0419 167.377 moveto
58.729 157.1285 lineto
50.2374 163.4645 lineto
closepath fill
1 setlinewidth
solid
0 0 0 edgecolor
newpath 56.0419 167.377 moveto
58.729 157.1285 lineto
50.2374 163.4645 lineto
closepath stroke
grestore
endpage
showpage
grestore
%%PageTrailer
%%EndPage: 1
%%Trailer
end
restore
%%EOF
